sem03/f329/exp04/databak/output/circuito_3_11_freq_300000hz_ch2.csv

,,Info,,Tempo (s),Tensão (V),,Incerteza de Tempo (s),Incerteza de Tensão (V)
0,Sample Interval,2.000000e-09,,-4.498e-06,-1.76,,8.703878456613466e-06,0.04486849930638977
1,Trigger Point,2.250000000000e+03,,-4.496e-06,-1.76,,8.703878456613466e-06,0.04486849930638977
2,,,,-4.494e-06,-1.76,,8.703878456613466e-06,0.04486849930638977
3,,,,-4.492e-06,-1.8,,8.703878456613466e-06,0.04590753805212712
4,,,,-4.49e-06,-1.8,,8.703878456613466e-06,0.04590753805212712
5,Source,CH2,,-4.488e-06,-1.8,,8.703878456613466e-06,0.04590753805212712
6,Vertical Units,V,,-4.486e-06,-1.8,,8.703878456613466e-06,0.04590753805212712
7,Vertical Scale,1.000000e+00,,-4.484e-06,-1.8,,8.703878456613466e-06,0.04590753805212712
8,Vertical Offset,0.000000e+00,,-4.482e-06,-1.8,,8.703878456613466e-06,0.04590753805212712
9,Horizontal Units,s,,-4.48e-06,-1.8,,8.703878456613466e-06,0.04590753805212712
10,Horizontal Scale,5.000000e-07,,-4.478e-06,-1.8,,8.703878456613466e-06,0.04590753805212712
11,Pt Fmt,Y,,-4.476e-06,-1.8,,8.703878456613466e-06,0.04590753805212712
12,Yzero,0.000000e+00,,-4.474e-06,-1.8,,8.703878456613466e-06,0.04590753805212712
13,Probe Atten,1.000000e+00,,-4.472e-06,-1.8,,8.703878456613466e-06,0.04590753805212712
14,Model Number,TBS1062,,-4.47e-06,-1.8,,8.703878456613466e-06,0.04590753805212712
15,Serial Number,C011224,,-4.468e-06,-1.8,,8.703878456613466e-06,0.04590753805212712
16,Firmware Version,FV:v26.01,,-4.466e-06,-1.84,,8.703878456613466e-06,0.04694658528591296
17,,,,-4.464e-06,-1.8,,8.703878456613466e-06,0.04590753805212712
18,,,,-4.462e-06,-1.8,,8.703878456613466e-06,0.04590753805212712
19,,,,-4.46e-06,-1.84,,8.703878456613466e-06,0.04694658528591296
20,,,,-4.458e-06,-1.84,,8.703878456613466e-06,0.04694658528591296
21,,,,-4.456e-06,-1.84,,8.703878456613466e-06,0.04694658528591296
22,,,,-4.454e-06,-1.84,,8.703878456613466e-06,0.04694658528591296
23,,,,-4.452e-06,-1.84,,8.703878456613466e-06,0.04694658528591296
24,,,,-4.45e-06,-1.84,,8.703878456613466e-06,0.04694658528591296
25,,,,-4.448e-06,-1.84,,8.703878456613466e-06,0.04694658528591296
26,,,,-4.446e-06,-1.84,,8.703878456613466e-06,0.04694658528591296
27,,,,-4.444e-06,-1.84,,8.703878456613466e-06,0.04694658528591296
28,,,,-4.442e-06,-1.84,,8.703878456613466e-06,0.04694658528591296
29,,,,-4.44e-06,-1.84,,8.703878456613466e-06,0.04694658528591296
30,,,,-4.438e-06,-1.84,,8.703878456613466e-06,0.04694658528591296
31,,,,-4.436e-06,-1.84,,8.703878456613466e-06,0.04694658528591296
32,,,,-4.434e-06,-1.84,,8.703878456613466e-06,0.04694658528591296
33,,,,-4.432e-06,-1.84,,8.703878456613466e-06,0.04694658528591296
34,,,,-4.43e-06,-1.84,,8.703878456613466e-06,0.04694658528591296
35,,,,-4.428e-06,-1.84,,8.703878456613466e-06,0.04694658528591296
36,,,,-4.426e-06,-1.84,,8.703878456613466e-06,0.04694658528591296
37,,,,-4.424e-06,-1.88,,8.703878456613466e-06,0.04798564045636464
38,,,,-4.422e-06,-1.88,,8.703878456613466e-06,0.04798564045636464
39,,,,-4.42e-06,-1.88,,8.703878456613466e-06,0.04798564045636464
40,,,,-4.418e-06,-1.88,,8.703878456613466e-06,0.04798564045636464
41,,,,-4.416e-06,-1.88,,8.703878456613466e-06,0.04798564045636464
42,,,,-4.414e-06,-1.88,,8.703878456613466e-06,0.04798564045636464
43,,,,-4.412e-06,-1.88,,8.703878456613466e-06,0.04798564045636464
44,,,,-4.41e-06,-1.88,,8.703878456613466e-06,0.04798564045636464
45,,,,-4.408e-06,-1.88,,8.703878456613466e-06,0.04798564045636464
46,,,,-4.406e-06,-1.88,,8.703878456613466e-06,0.04798564045636464
47,,,,-4.404e-06,-1.88,,8.703878456613466e-06,0.04798564045636464
48,,,,-4.402e-06,-1.88,,8.703878456613466e-06,0.04798564045636464
49,,,,-4.4e-06,-1.88,,8.703878456613466e-06,0.04798564045636464
50,,,,-4.398e-06,-1.88,,8.703878456613466e-06,0.04798564045636464
51,,,,-4.396e-06,-1.88,,8.703878456613466e-06,0.04798564045636464
52,,,,-4.394e-06,-1.88,,8.703878456613466e-06,0.04798564045636464
53,,,,-4.392e-06,-1.88,,8.703878456613466e-06,0.04798564045636464
54,,,,-4.39e-06,-1.88,,8.703878456613466e-06,0.04798564045636464
55,,,,-4.388e-06,-1.88,,8.703878456613466e-06,0.04798564045636464
56,,,,-4.386e-06,-1.88,,8.703878456613466e-06,0.04798564045636464
57,,,,-4.384e-06,-1.92,,8.703878456613466e-06,0.049024703058840643
58,,,,-4.382e-06,-1.92,,8.703878456613466e-06,0.049024703058840643
59,,,,-4.38e-06,-1.92,,8.703878456613466e-06,0.049024703058840643
60,,,,-4.378e-06,-1.88,,8.703878456613466e-06,0.04798564045636464
61,,,,-4.376e-06,-1.92,,8.703878456613466e-06,0.049024703058840643
62,,,,-4.374e-06,-1.92,,8.703878456613466e-06,0.049024703058840643
63,,,,-4.372e-06,-1.92,,8.703878456613466e-06,0.049024703058840643
64,,,,-4.37e-06,-1.92,,8.703878456613466e-06,0.049024703058840643
65,,,,-4.368e-06,-1.92,,8.703878456613466e-06,0.049024703058840643
66,,,,-4.366e-06,-1.92,,8.703878456613466e-06,0.049024703058840643
67,,,,-4.364e-06,-1.92,,8.703878456613466e-06,0.049024703058840643
68,,,,-4.362e-06,-1.92,,8.703878456613466e-06,0.049024703058840643
69,,,,-4.36e-06,-1.92,,8.703878456613466e-06,0.049024703058840643
70,,,,-4.358e-06,-1.92,,8.703878456613466e-06,0.049024703058840643
71,,,,-4.356e-06,-1.92,,8.703878456613466e-06,0.049024703058840643
72,,,,-4.354e-06,-1.92,,8.703878456613466e-06,0.049024703058840643
73,,,,-4.352e-06,-1.92,,8.703878456613466e-06,0.049024703058840643
74,,,,-4.35e-06,-1.92,,8.703878456613466e-06,0.049024703058840643
75,,,,-4.348e-06,-1.92,,8.703878456613466e-06,0.049024703058840643
76,,,,-4.346e-06,-1.92,,8.703878456613466e-06,0.049024703058840643
77,,,,-4.344e-06,-1.92,,8.703878456613466e-06,0.049024703058840643
78,,,,-4.342e-06,-1.92,,8.703878456613466e-06,0.049024703058840643
79,,,,-4.34e-06,-1.92,,8.703878456613466e-06,0.049024703058840643
80,,,,-4.338e-06,-1.92,,8.703878456613466e-06,0.049024703058840643
81,,,,-4.336e-06,-1.92,,8.703878456613466e-06,0.049024703058840643
82,,,,-4.334e-06,-1.92,,8.703878456613466e-06,0.049024703058840643
83,,,,-4.332e-06,-1.92,,8.703878456613466e-06,0.049024703058840643
84,,,,-4.33e-06,-1.92,,8.703878456613466e-06,0.049024703058840643
85,,,,-4.328e-06,-1.92,,8.703878456613466e-06,0.049024703058840643
86,,,,-4.326e-06,-1.92,,8.703878456613466e-06,0.049024703058840643
87,,,,-4.324e-06,-1.92,,8.703878456613466e-06,0.049024703058840643
88,,,,-4.322e-06,-1.92,,8.703878456613466e-06,0.049024703058840643
89,,,,-4.32e-06,-1.92,,8.703878456613466e-06,0.049024703058840643
90,,,,-4.318e-06,-1.92,,8.703878456613466e-06,0.049024703058840643
91,,,,-4.316e-06,-1.92,,8.703878456613466e-06,0.049024703058840643
92,,,,-4.314e-06,-1.92,,8.703878456613466e-06,0.049024703058840643
93,,,,-4.312e-06,-1.92,,8.703878456613466e-06,0.049024703058840643
94,,,,-4.31e-06,-1.92,,8.703878456613466e-06,0.049024703058840643
95,,,,-4.308e-06,-1.92,,8.703878456613466e-06,0.049024703058840643
96,,,,-4.306e-06,-1.92,,8.703878456613466e-06,0.049024703058840643
97,,,,-4.304e-06,-1.92,,8.703878456613466e-06,0.049024703058840643
98,,,,-4.302e-06,-1.92,,8.703878456613466e-06,0.049024703058840643
99,,,,-4.3e-06,-1.92,,8.703878456613466e-06,0.049024703058840643
100,,,,-4.298e-06,-1.92,,8.703878456613466e-06,0.049024703058840643
101,,,,-4.296e-06,-1.92,,8.703878456613466e-06,0.049024703058840643
102,,,,-4.294e-06,-1.92,,8.703878456613466e-06,0.049024703058840643
103,,,,-4.292e-06,-1.92,,8.703878456613466e-06,0.049024703058840643
104,,,,-4.29e-06,-1.92,,8.703878456613466e-06,0.049024703058840643
105,,,,-4.288e-06,-1.92,,8.703878456613466e-06,0.049024703058840643
106,,,,-4.286e-06,-1.92,,8.703878456613466e-06,0.049024703058840643
107,,,,-4.284e-06,-1.92,,8.703878456613466e-06,0.049024703058840643
108,,,,-4.282e-06,-1.92,,8.703878456613466e-06,0.049024703058840643
109,,,,-4.28e-06,-1.92,,8.703878456613466e-06,0.049024703058840643
110,,,,-4.278e-06,-1.92,,8.703878456613466e-06,0.049024703058840643
111,,,,-4.276e-06,-1.92,,8.703878456613466e-06,0.049024703058840643
112,,,,-4.274e-06,-1.92,,8.703878456613466e-06,0.049024703058840643
113,,,,-4.272e-06,-1.92,,8.703878456613466e-06,0.049024703058840643
114,,,,-4.27e-06,-1.92,,8.703878456613466e-06,0.049024703058840643
115,,,,-4.268e-06,-1.92,,8.703878456613466e-06,0.049024703058840643
116,,,,-4.266e-06,-1.92,,8.703878456613466e-06,0.049024703058840643
117,,,,-4.264e-06,-1.92,,8.703878456613466e-06,0.049024703058840643
118,,,,-4.262e-06,-1.92,,8.703878456613466e-06,0.049024703058840643
119,,,,-4.26e-06,-1.92,,8.703878456613466e-06,0.049024703058840643
120,,,,-4.258e-06,-1.92,,8.703878456613466e-06,0.049024703058840643
121,,,,-4.256e-06,-1.92,,8.703878456613466e-06,0.049024703058840643
122,,,,-4.254e-06,-1.92,,8.703878456613466e-06,0.049024703058840643
123,,,,-4.252e-06,-1.92,,8.703878456613466e-06,0.049024703058840643
124,,,,-4.25e-06,-1.92,,8.703878456613466e-06,0.049024703058840643
125,,,,-4.248e-06,-1.92,,8.703878456613466e-06,0.049024703058840643
126,,,,-4.246e-06,-1.92,,8.703878456613466e-06,0.049024703058840643
127,,,,-4.244e-06,-1.92,,8.703878456613466e-06,0.049024703058840643
128,,,,-4.242e-06,-1.92,,8.703878456613466e-06,0.049024703058840643
129,,,,-4.24e-06,-1.92,,8.703878456613466e-06,0.049024703058840643
130,,,,-4.238e-06,-1.92,,8.703878456613466e-06,0.049024703058840643
131,,,,-4.236e-06,-1.92,,8.703878456613466e-06,0.049024703058840643
132,,,,-4.234e-06,-1.92,,8.703878456613466e-06,0.049024703058840643
133,,,,-4.232e-06,-1.92,,8.703878456613466e-06,0.049024703058840643
134,,,,-4.23e-06,-1.92,,8.703878456613466e-06,0.049024703058840643
135,,,,-4.228e-06,-1.92,,8.703878456613466e-06,0.049024703058840643
136,,,,-4.226e-06,-1.92,,8.703878456613466e-06,0.049024703058840643
137,,,,-4.224e-06,-1.92,,8.703878456613466e-06,0.049024703058840643
138,,,,-4.222e-06,-1.92,,8.703878456613466e-06,0.049024703058840643
139,,,,-4.22e-06,-1.92,,8.703878456613466e-06,0.049024703058840643
140,,,,-4.218e-06,-1.92,,8.703878456613466e-06,0.049024703058840643
141,,,,-4.216e-06,-1.92,,8.703878456613466e-06,0.049024703058840643
142,,,,-4.214e-06,-1.92,,8.703878456613466e-06,0.049024703058840643
143,,,,-4.212e-06,-1.92,,8.703878456613466e-06,0.049024703058840643
144,,,,-4.21e-06,-1.92,,8.703878456613466e-06,0.049024703058840643
145,,,,-4.208e-06,-1.92,,8.703878456613466e-06,0.049024703058840643
146,,,,-4.206e-06,-1.92,,8.703878456613466e-06,0.049024703058840643
147,,,,-4.204e-06,-1.92,,8.703878456613466e-06,0.049024703058840643
148,,,,-4.202e-06,-1.92,,8.703878456613466e-06,0.049024703058840643
149,,,,-4.2e-06,-1.92,,8.703878456613466e-06,0.049024703058840643
150,,,,-4.198e-06,-1.92,,8.703878456613466e-06,0.049024703058840643
151,,,,-4.196e-06,-1.92,,8.703878456613466e-06,0.049024703058840643
152,,,,-4.194e-06,-1.92,,8.703878456613466e-06,0.049024703058840643
153,,,,-4.192e-06,-1.92,,8.703878456613466e-06,0.049024703058840643
154,,,,-4.19e-06,-1.92,,8.703878456613466e-06,0.049024703058840643
155,,,,-4.188e-06,-1.92,,8.703878456613466e-06,0.049024703058840643
156,,,,-4.186e-06,-1.92,,8.703878456613466e-06,0.049024703058840643
157,,,,-4.184e-06,-1.92,,8.703878456613466e-06,0.049024703058840643
158,,,,-4.182e-06,-1.92,,8.703878456613466e-06,0.049024703058840643
159,,,,-4.18e-06,-1.92,,8.703878456613466e-06,0.049024703058840643
160,,,,-4.178e-06,-1.88,,8.703878456613466e-06,0.04798564045636464
161,,,,-4.176e-06,-1.92,,8.703878456613466e-06,0.049024703058840643
162,,,,-4.174e-06,-1.88,,8.703878456613466e-06,0.04798564045636464
163,,,,-4.172e-06,-1.88,,8.703878456613466e-06,0.04798564045636464
164,,,,-4.17e-06,-1.88,,8.703878456613466e-06,0.04798564045636464
165,,,,-4.168e-06,-1.88,,8.703878456613466e-06,0.04798564045636464
166,,,,-4.166e-06,-1.88,,8.703878456613466e-06,0.04798564045636464
167,,,,-4.164e-06,-1.88,,8.703878456613466e-06,0.04798564045636464
168,,,,-4.162e-06,-1.88,,8.703878456613466e-06,0.04798564045636464
169,,,,-4.16e-06,-1.88,,8.703878456613466e-06,0.04798564045636464
170,,,,-4.158e-06,-1.88,,8.703878456613466e-06,0.04798564045636464
171,,,,-4.156e-06,-1.88,,8.703878456613466e-06,0.04798564045636464
172,,,,-4.154e-06,-1.88,,8.703878456613466e-06,0.04798564045636464
173,,,,-4.152e-06,-1.88,,8.703878456613466e-06,0.04798564045636464
174,,,,-4.15e-06,-1.88,,8.703878456613466e-06,0.04798564045636464
175,,,,-4.148e-06,-1.88,,8.703878456613466e-06,0.04798564045636464
176,,,,-4.146e-06,-1.88,,8.703878456613466e-06,0.04798564045636464
177,,,,-4.144e-06,-1.88,,8.703878456613466e-06,0.04798564045636464
178,,,,-4.142e-06,-1.88,,8.703878456613466e-06,0.04798564045636464
179,,,,-4.14e-06,-1.88,,8.703878456613466e-06,0.04798564045636464
180,,,,-4.138e-06,-1.88,,8.703878456613466e-06,0.04798564045636464
181,,,,-4.136e-06,-1.88,,8.703878456613466e-06,0.04798564045636464
182,,,,-4.134e-06,-1.88,,8.703878456613466e-06,0.04798564045636464
183,,,,-4.132e-06,-1.88,,8.703878456613466e-06,0.04798564045636464
184,,,,-4.13e-06,-1.84,,8.703878456613466e-06,0.04694658528591296
185,,,,-4.128e-06,-1.84,,8.703878456613466e-06,0.04694658528591296
186,,,,-4.126e-06,-1.84,,8.703878456613466e-06,0.04694658528591296
187,,,,-4.124e-06,-1.84,,8.703878456613466e-06,0.04694658528591296
188,,,,-4.122e-06,-1.84,,8.703878456613466e-06,0.04694658528591296
189,,,,-4.12e-06,-1.84,,8.703878456613466e-06,0.04694658528591296
190,,,,-4.118e-06,-1.84,,8.703878456613466e-06,0.04694658528591296
191,,,,-4.116e-06,-1.84,,8.703878456613466e-06,0.04694658528591296
192,,,,-4.114e-06,-1.84,,8.703878456613466e-06,0.04694658528591296
193,,,,-4.112e-06,-1.84,,8.703878456613466e-06,0.04694658528591296
194,,,,-4.11e-06,-1.84,,8.703878456613466e-06,0.04694658528591296
195,,,,-4.108e-06,-1.84,,8.703878456613466e-06,0.04694658528591296
196,,,,-4.106e-06,-1.84,,8.703878456613466e-06,0.04694658528591296
197,,,,-4.104e-06,-1.84,,8.703878456613466e-06,0.04694658528591296
198,,,,-4.102e-06,-1.84,,8.703878456613466e-06,0.04694658528591296
199,,,,-4.1e-06,-1.84,,8.703878456613466e-06,0.04694658528591296
200,,,,-4.098e-06,-1.84,,8.703878456613466e-06,0.04694658528591296
201,,,,-4.096e-06,-1.84,,8.703878456613466e-06,0.04694658528591296
202,,,,-4.094e-06,-1.84,,8.703878456613466e-06,0.04694658528591296
203,,,,-4.092e-06,-1.8,,8.703878456613466e-06,0.04590753805212712
204,,,,-4.09e-06,-1.8,,8.703878456613466e-06,0.04590753805212712
205,,,,-4.088e-06,-1.8,,8.703878456613466e-06,0.04590753805212712
206,,,,-4.086e-06,-1.8,,8.703878456613466e-06,0.04590753805212712
207,,,,-4.084e-06,-1.8,,8.703878456613466e-06,0.04590753805212712
208,,,,-4.082e-06,-1.8,,8.703878456613466e-06,0.04590753805212712
209,,,,-4.08e-06,-1.8,,8.703878456613466e-06,0.04590753805212712
210,,,,-4.078e-06,-1.8,,8.703878456613466e-06,0.04590753805212712
211,,,,-4.076e-06,-1.8,,8.703878456613466e-06,0.04590753805212712
212,,,,-4.074e-06,-1.8,,8.703878456613466e-06,0.04590753805212712
213,,,,-4.072e-06,-1.8,,8.703878456613466e-06,0.04590753805212712
214,,,,-4.07e-06,-1.8,,8.703878456613466e-06,0.04590753805212712
215,,,,-4.068e-06,-1.8,,8.703878456613466e-06,0.04590753805212712
216,,,,-4.066e-06,-1.8,,8.703878456613466e-06,0.04590753805212712
217,,,,-4.064e-06,-1.8,,8.703878456613466e-06,0.04590753805212712
218,,,,-4.062e-06,-1.8,,8.703878456613466e-06,0.04590753805212712
219,,,,-4.06e-06,-1.76,,8.703878456613466e-06,0.04486849930638977
220,,,,-4.058e-06,-1.76,,8.703878456613466e-06,0.04486849930638977
221,,,,-4.056e-06,-1.76,,8.703878456613466e-06,0.04486849930638977
222,,,,-4.054e-06,-1.76,,8.703878456613466e-06,0.04486849930638977
223,,,,-4.052e-06,-1.76,,8.703878456613466e-06,0.04486849930638977
224,,,,-4.05e-06,-1.76,,8.703878456613466e-06,0.04486849930638977
225,,,,-4.048e-06,-1.76,,8.703878456613466e-06,0.04486849930638977
226,,,,-4.046e-06,-1.76,,8.703878456613466e-06,0.04486849930638977
227,,,,-4.044e-06,-1.76,,8.703878456613466e-06,0.04486849930638977
228,,,,-4.042e-06,-1.76,,8.703878456613466e-06,0.04486849930638977
229,,,,-4.04e-06,-1.76,,8.703878456613466e-06,0.04486849930638977
230,,,,-4.038e-06,-1.76,,8.703878456613466e-06,0.04486849930638977
231,,,,-4.036e-06,-1.76,,8.703878456613466e-06,0.04486849930638977
232,,,,-4.034e-06,-1.72,,8.703878456613466e-06,0.043829469652364034
233,,,,-4.032e-06,-1.72,,8.703878456613466e-06,0.043829469652364034
234,,,,-4.03e-06,-1.72,,8.703878456613466e-06,0.043829469652364034
235,,,,-4.028e-06,-1.72,,8.703878456613466e-06,0.043829469652364034
236,,,,-4.026e-06,-1.72,,8.703878456613466e-06,0.043829469652364034
237,,,,-4.024e-06,-1.72,,8.703878456613466e-06,0.043829469652364034
238,,,,-4.022e-06,-1.72,,8.703878456613466e-06,0.043829469652364034
239,,,,-4.02e-06,-1.72,,8.703878456613466e-06,0.043829469652364034
240,,,,-4.018e-06,-1.72,,8.703878456613466e-06,0.043829469652364034
241,,,,-4.016e-06,-1.72,,8.703878456613466e-06,0.043829469652364034
242,,,,-4.014e-06,-1.68,,8.703878456613466e-06,0.04279044975233959
243,,,,-4.012e-06,-1.68,,8.703878456613466e-06,0.04279044975233959
244,,,,-4.01e-06,-1.68,,8.703878456613466e-06,0.04279044975233959
245,,,,-4.008e-06,-1.68,,8.703878456613466e-06,0.04279044975233959
246,,,,-4.006e-06,-1.68,,8.703878456613466e-06,0.04279044975233959
247,,,,-4.004e-06,-1.68,,8.703878456613466e-06,0.04279044975233959
248,,,,-4.002e-06,-1.68,,8.703878456613466e-06,0.04279044975233959
249,,,,-4e-06,-1.68,,8.703878456613466e-06,0.04279044975233959
250,,,,-3.998e-06,-1.68,,8.703878456613466e-06,0.04279044975233959
251,,,,-3.996e-06,-1.68,,8.703878456613466e-06,0.04279044975233959
252,,,,-3.994e-06,-1.68,,8.703878456613466e-06,0.04279044975233959
253,,,,-3.992e-06,-1.64,,8.703878456613466e-06,0.04175144033452618
254,,,,-3.99e-06,-1.64,,8.703878456613466e-06,0.04175144033452618
255,,,,-3.988e-06,-1.64,,8.703878456613466e-06,0.04175144033452618
256,,,,-3.986e-06,-1.64,,8.703878456613466e-06,0.04175144033452618
257,,,,-3.984e-06,-1.64,,8.703878456613466e-06,0.04175144033452618
258,,,,-3.982e-06,-1.64,,8.703878456613466e-06,0.04175144033452618
259,,,,-3.98e-06,-1.64,,8.703878456613466e-06,0.04175144033452618
260,,,,-3.978e-06,-1.64,,8.703878456613466e-06,0.04175144033452618
261,,,,-3.976e-06,-1.64,,8.703878456613466e-06,0.04175144033452618
262,,,,-3.974e-06,-1.64,,8.703878456613466e-06,0.04175144033452618
263,,,,-3.972e-06,-1.64,,8.703878456613466e-06,0.04175144033452618
264,,,,-3.97e-06,-1.64,,8.703878456613466e-06,0.04175144033452618
265,,,,-3.968e-06,-1.64,,8.703878456613466e-06,0.04175144033452618
266,,,,-3.966e-06,-1.6,,8.703878456613466e-06,0.040712442201463424
267,,,,-3.964e-06,-1.6,,8.703878456613466e-06,0.040712442201463424
268,,,,-3.962e-06,-1.6,,8.703878456613466e-06,0.040712442201463424
269,,,,-3.96e-06,-1.6,,8.703878456613466e-06,0.040712442201463424
270,,,,-3.958e-06,-1.6,,8.703878456613466e-06,0.040712442201463424
271,,,,-3.956e-06,-1.6,,8.703878456613466e-06,0.040712442201463424
272,,,,-3.954e-06,-1.6,,8.703878456613466e-06,0.040712442201463424
273,,,,-3.952e-06,-1.6,,8.703878456613466e-06,0.040712442201463424
274,,,,-3.95e-06,-1.6,,8.703878456613466e-06,0.040712442201463424
275,,,,-3.948e-06,-1.56,,8.703878456613466e-06,0.039673456239751784
276,,,,-3.946e-06,-1.56,,8.703878456613466e-06,0.039673456239751784
277,,,,-3.944e-06,-1.56,,8.703878456613466e-06,0.039673456239751784
278,,,,-3.942e-06,-1.56,,8.703878456613466e-06,0.039673456239751784
279,,,,-3.94e-06,-1.56,,8.703878456613466e-06,0.039673456239751784
280,,,,-3.938e-06,-1.56,,8.703878456613466e-06,0.039673456239751784
281,,,,-3.936e-06,-1.56,,8.703878456613466e-06,0.039673456239751784
282,,,,-3.934e-06,-1.56,,8.703878456613466e-06,0.039673456239751784
283,,,,-3.932e-06,-1.56,,8.703878456613466e-06,0.039673456239751784
284,,,,-3.93e-06,-1.52,,8.703878456613466e-06,0.03863448343135314
285,,,,-3.928e-06,-1.52,,8.703878456613466e-06,0.03863448343135314
286,,,,-3.926e-06,-1.52,,8.703878456613466e-06,0.03863448343135314
287,,,,-3.924e-06,-1.52,,8.703878456613466e-06,0.03863448343135314
288,,,,-3.922e-06,-1.52,,8.703878456613466e-06,0.03863448343135314
289,,,,-3.92e-06,-1.52,,8.703878456613466e-06,0.03863448343135314
290,,,,-3.918e-06,-1.52,,8.703878456613466e-06,0.03863448343135314
291,,,,-3.916e-06,-1.52,,8.703878456613466e-06,0.03863448343135314
292,,,,-3.914e-06,-1.52,,8.703878456613466e-06,0.03863448343135314
293,,,,-3.912e-06,-1.48,,8.703878456613466e-06,0.03759552486676439
