sem03/f329/exp04/databak/output/circuito_3_06_freq_1000hz_ch2.csv

,,Info,,Tempo (s),Tensão (V),,Incerteza de Tempo (s),Incerteza de Tensão (V)
0,Sample Interval,1.000000e-06,,-0.002249,-0.12,,8.703878456613466e-06,0.002414458532984155
1,Trigger Point,2.250000000000e+03,,-0.002248,-0.112,,8.703878456613466e-06,0.002221901439645782
2,,,,-0.002247,-0.112,,8.703878456613466e-06,0.002221901439645782
3,,,,-0.002246,-0.104,,8.703878456613466e-06,0.0020323587300228275
4,,,,-0.002245,-0.104,,8.703878456613466e-06,0.0020323587300228275
5,Source,CH2,,-0.002244,-0.104,,8.703878456613466e-06,0.0020323587300228275
6,Vertical Units,V,,-0.002243,-0.096,,8.703878456613466e-06,0.0018467587843299946
7,Vertical Scale,2.000000e-01,,-0.002242,-0.088,,8.703878456613466e-06,0.001666419517258484
8,Vertical Offset,0.000000e+00,,-0.002241,-0.088,,8.703878456613466e-06,0.001666419517258484
9,Horizontal Units,s,,-0.00224,-0.088,,8.703878456613466e-06,0.001666419517258484
10,Horizontal Scale,2.500000e-04,,-0.002239,-0.08,,8.703878456613466e-06,0.001493248139962009
11,Pt Fmt,Y,,-0.002238,-0.08,,8.703878456613466e-06,0.001493248139962009
12,Yzero,0.000000e+00,,-0.002237,-0.072,,8.703878456613466e-06,0.0013300473703970093
13,Probe Atten,1.000000e+00,,-0.002236,-0.072,,8.703878456613466e-06,0.0013300473703970093
14,Model Number,TBS1062,,-0.002235,-0.064,,8.703878456613466e-06,0.0011809580887990902
15,Serial Number,C011224,,-0.002234,-0.064,,8.703878456613466e-06,0.0011809580887990902
16,Firmware Version,FV:v26.01,,-0.002233,-0.056,,8.703878456613466e-06,0.0010519971518497566
17,,,,-0.002232,-0.056,,8.703878456613466e-06,0.0010519971518497566
18,,,,-0.002231,-0.048,,8.703878456613466e-06,0.0009513853096931861
19,,,,-0.00223,-0.048,,8.703878456613466e-06,0.0009513853096931861
20,,,,-0.002229,-0.04,,8.703878456613466e-06,0.0008888025694719834
21,,,,-0.002228,-0.04,,8.703878456613466e-06,0.0008888025694719834
22,,,,-0.002227,-0.032,,8.703878456613466e-06,0.0008724712072613055
23,,,,-0.002226,-0.032,,8.703878456613466e-06,0.0008724712072613055
24,,,,-0.002225,-0.024,,8.703878456613466e-06,0.0009048988935234698
25,,,,-0.002224,-0.024,,8.703878456613466e-06,0.0009048988935234698
26,,,,-0.002223,-0.016,,8.703878456613466e-06,0.0009812634750667121
27,,,,-0.002222,-0.016,,8.703878456613466e-06,0.0009812634750667121
28,,,,-0.002221,-0.008,,8.703878456613466e-06,0.0010923891282413971
29,,,,-0.00222,-0.008,,8.703878456613466e-06,0.0010923891282413971
30,,,,-0.002219,0.0,,8.703878456613466e-06,0.0012288816084147407
31,,,,-0.002218,0.0,,8.703878456613466e-06,0.0012288816084147407
32,,,,-0.002217,0.0,,8.703878456613466e-06,0.0012288816084147407
33,,,,-0.002216,0.008,,8.703878456613466e-06,0.0013832519681894544
34,,,,-0.002215,0.016,,8.703878456613466e-06,0.001550168380370339
35,,,,-0.002214,0.016,,8.703878456613466e-06,0.001550168380370339
36,,,,-0.002213,0.016,,8.703878456613466e-06,0.001550168380370339
37,,,,-0.002212,0.024,,8.703878456613466e-06,0.0017259947877963015
38,,,,-0.002211,0.024,,8.703878456613466e-06,0.0017259947877963015
39,,,,-0.00221,0.032,,8.703878456613466e-06,0.00190826989901848
40,,,,-0.002209,0.032,,8.703878456613466e-06,0.00190826989901848
41,,,,-0.002208,0.04,,8.703878456613466e-06,0.002095311434488916
42,,,,-0.002207,0.04,,8.703878456613466e-06,0.002095311434488916
43,,,,-0.002206,0.048,,8.703878456613466e-06,0.0022859496948751954
44,,,,-0.002205,0.048,,8.703878456613466e-06,0.0022859496948751954
45,,,,-0.002204,0.056,,8.703878456613466e-06,0.0024793551596130796
46,,,,-0.002203,0.056,,8.703878456613466e-06,0.0024793551596130796
47,,,,-0.002202,0.064,,8.703878456613466e-06,0.0026749276639752334
48,,,,-0.002201,0.064,,8.703878456613466e-06,0.0026749276639752334
49,,,,-0.0022,0.064,,8.703878456613466e-06,0.0026749276639752334
50,,,,-0.002199,0.072,,8.703878456613466e-06,0.002872224574698155
51,,,,-0.002198,0.072,,8.703878456613466e-06,0.002872224574698155
52,,,,-0.002197,0.08,,8.703878456613466e-06,0.003070913546080384
53,,,,-0.002196,0.08,,8.703878456613466e-06,0.003070913546080384
54,,,,-0.002195,0.088,,8.703878456613466e-06,0.0032707408958063304
55,,,,-0.002194,0.088,,8.703878456613466e-06,0.0032707408958063304
56,,,,-0.002193,0.096,,8.703878456613466e-06,0.003471510047155271
57,,,,-0.002192,0.096,,8.703878456613466e-06,0.003471510047155271
58,,,,-0.002191,0.104,,8.703878456613466e-06,0.0036730665672568465
59,,,,-0.00219,0.104,,8.703878456613466e-06,0.0036730665672568465
60,,,,-0.002189,0.112,,8.703878456613466e-06,0.003875287603197987
61,,,,-0.002188,0.112,,8.703878456613466e-06,0.003875287603197987
62,,,,-0.002187,0.12,,8.703878456613466e-06,0.004078074301370685
63,,,,-0.002186,0.12,,8.703878456613466e-06,0.004078074301370685
64,,,,-0.002185,0.12,,8.703878456613466e-06,0.004078074301370685
65,,,,-0.002184,0.128,,8.703878456613466e-06,0.004281346284464736
66,,,,-0.002183,0.128,,8.703878456613466e-06,0.004281346284464736
67,,,,-0.002182,0.136,,8.703878456613466e-06,0.00448503757035546
68,,,,-0.002181,0.136,,8.703878456613466e-06,0.00448503757035546
69,,,,-0.00218,0.144,,8.703878456613466e-06,0.004689093516608513
70,,,,-0.002179,0.144,,8.703878456613466e-06,0.004689093516608513
71,,,,-0.002178,0.152,,8.703878456613466e-06,0.004893468504803111
72,,,,-0.002177,0.152,,8.703878456613466e-06,0.004893468504803111
73,,,,-0.002176,0.16,,8.703878456613466e-06,0.005098124165563251
74,,,,-0.002175,0.16,,8.703878456613466e-06,0.005098124165563251
75,,,,-0.002174,0.168,,8.703878456613466e-06,0.005303028003650367
76,,,,-0.002173,0.168,,8.703878456613466e-06,0.005303028003650367
77,,,,-0.002172,0.168,,8.703878456613466e-06,0.005303028003650367
78,,,,-0.002171,0.176,,8.703878456613466e-06,0.005508152322467126
79,,,,-0.00217,0.176,,8.703878456613466e-06,0.005508152322467126
80,,,,-0.002169,0.184,,8.703878456613466e-06,0.005713473375058292
81,,,,-0.002168,0.184,,8.703878456613466e-06,0.005713473375058292
82,,,,-0.002167,0.192,,8.703878456613466e-06,0.0059189706881771255
83,,,,-0.002166,0.192,,8.703878456613466e-06,0.0059189706881771255
84,,,,-0.002165,0.192,,8.703878456613466e-06,0.0059189706881771255
85,,,,-0.002164,0.2,,8.703878456613466e-06,0.006124626519837761
86,,,,-0.002163,0.2,,8.703878456613466e-06,0.006124626519837761
87,,,,-0.002162,0.208,,8.703878456613466e-06,0.006330425420735955
88,,,,-0.002161,0.208,,8.703878456613466e-06,0.006330425420735955
89,,,,-0.00216,0.216,,8.703878456613466e-06,0.00653635387716271
90,,,,-0.002159,0.216,,8.703878456613466e-06,0.00653635387716271
91,,,,-0.002158,0.224,,8.703878456613466e-06,0.006742400018353999
92,,,,-0.002157,0.224,,8.703878456613466e-06,0.006742400018353999
93,,,,-0.002156,0.224,,8.703878456613466e-06,0.006742400018353999
94,,,,-0.002155,0.232,,8.703878456613466e-06,0.006948553375163783
95,,,,-0.002154,0.232,,8.703878456613466e-06,0.006948553375163783
96,,,,-0.002153,0.24,,8.703878456613466e-06,0.007154804679898676
97,,,,-0.002152,0.24,,8.703878456613466e-06,0.007154804679898676
98,,,,-0.002151,0.248,,8.703878456613466e-06,0.007361145699379953
99,,,,-0.00215,0.248,,8.703878456613466e-06,0.007361145699379953
100,,,,-0.002149,0.248,,8.703878456613466e-06,0.007361145699379953
101,,,,-0.002148,0.256,,8.703878456613466e-06,0.00756756909499345
102,,,,-0.002147,0.256,,8.703878456613466e-06,0.00756756909499345
103,,,,-0.002146,0.264,,8.703878456613466e-06,0.007774068304787398
104,,,,-0.002145,0.264,,8.703878456613466e-06,0.007774068304787398
105,,,,-0.002144,0.272,,8.703878456613466e-06,0.007980637443682052
106,,,,-0.002143,0.272,,8.703878456613466e-06,0.007980637443682052
107,,,,-0.002142,0.272,,8.703878456613466e-06,0.007980637443682052
108,,,,-0.002141,0.28,,8.703878456613466e-06,0.00818727121863567
109,,,,-0.00214,0.28,,8.703878456613466e-06,0.00818727121863567
110,,,,-0.002139,0.288,,8.703878456613466e-06,0.008393964856222593
111,,,,-0.002138,0.288,,8.703878456613466e-06,0.008393964856222593
112,,,,-0.002137,0.296,,8.703878456613466e-06,0.008600714040560817
113,,,,-0.002136,0.296,,8.703878456613466e-06,0.008600714040560817
114,,,,-0.002135,0.296,,8.703878456613466e-06,0.008600714040560817
115,,,,-0.002134,0.304,,8.703878456613466e-06,0.008807514859907986
116,,,,-0.002133,0.304,,8.703878456613466e-06,0.008807514859907986
117,,,,-0.002132,0.312,,8.703878456613466e-06,0.009014363760549048
118,,,,-0.002131,0.312,,8.703878456613466e-06,0.009014363760549048
119,,,,-0.00213,0.32,,8.703878456613466e-06,0.009221257506842544
120,,,,-0.002129,0.32,,8.703878456613466e-06,0.009221257506842544
121,,,,-0.002128,0.32,,8.703878456613466e-06,0.009221257506842544
122,,,,-0.002127,0.328,,8.703878456613466e-06,0.009428193146488885
123,,,,-0.002126,0.328,,8.703878456613466e-06,0.009428193146488885
124,,,,-0.002125,0.336,,8.703878456613466e-06,0.009635167980243
125,,,,-0.002124,0.336,,8.703878456613466e-06,0.009635167980243
126,,,,-0.002123,0.336,,8.703878456613466e-06,0.009635167980243
127,,,,-0.002122,0.344,,8.703878456613466e-06,0.009842179535423035
128,,,,-0.002121,0.344,,8.703878456613466e-06,0.009842179535423035
129,,,,-0.00212,0.352,,8.703878456613466e-06,0.010049225542672428
130,,,,-0.002119,0.352,,8.703878456613466e-06,0.010049225542672428
131,,,,-0.002118,0.352,,8.703878456613466e-06,0.010049225542672428
132,,,,-0.002117,0.352,,8.703878456613466e-06,0.010049225542672428
133,,,,-0.002116,0.36,,8.703878456613466e-06,0.010256303915519467
134,,,,-0.002115,0.36,,8.703878456613466e-06,0.010256303915519467
135,,,,-0.002114,0.368,,8.703878456613466e-06,0.010463412732349802
136,,,,-0.002113,0.368,,8.703878456613466e-06,0.010463412732349802
137,,,,-0.002112,0.368,,8.703878456613466e-06,0.010463412732349802
138,,,,-0.002111,0.376,,8.703878456613466e-06,0.010670550220466608
139,,,,-0.00211,0.376,,8.703878456613466e-06,0.010670550220466608
140,,,,-0.002109,0.384,,8.703878456613466e-06,0.010877714741962117
141,,,,-0.002108,0.384,,8.703878456613466e-06,0.010877714741962117
142,,,,-0.002107,0.384,,8.703878456613466e-06,0.010877714741962117
143,,,,-0.002106,0.392,,8.703878456613466e-06,0.011084904781165238
144,,,,-0.002105,0.392,,8.703878456613466e-06,0.011084904781165238
145,,,,-0.002104,0.392,,8.703878456613466e-06,0.011084904781165238
146,,,,-0.002103,0.4,,8.703878456613466e-06,0.01129211893346417
147,,,,-0.002102,0.4,,8.703878456613466e-06,0.01129211893346417
148,,,,-0.002101,0.408,,8.703878456613466e-06,0.0114993558953317
149,,,,-0.0021,0.408,,8.703878456613466e-06,0.0114993558953317
150,,,,-0.002099,0.408,,8.703878456613466e-06,0.0114993558953317
151,,,,-0.002098,0.416,,8.703878456613466e-06,0.011706614455405112
152,,,,-0.002097,0.416,,8.703878456613466e-06,0.011706614455405112
153,,,,-0.002096,0.416,,8.703878456613466e-06,0.011706614455405112
154,,,,-0.002095,0.424,,8.703878456613466e-06,0.011913893486492983
155,,,,-0.002094,0.424,,8.703878456613466e-06,0.011913893486492983
156,,,,-0.002093,0.424,,8.703878456613466e-06,0.011913893486492983
157,,,,-0.002092,0.432,,8.703878456613466e-06,0.012121191938398631
158,,,,-0.002091,0.432,,8.703878456613466e-06,0.012121191938398631
159,,,,-0.00209,0.432,,8.703878456613466e-06,0.012121191938398631
160,,,,-0.002089,0.44,,8.703878456613466e-06,0.012328508831464573
161,,,,-0.002088,0.44,,8.703878456613466e-06,0.012328508831464573
162,,,,-0.002087,0.44,,8.703878456613466e-06,0.012328508831464573
163,,,,-0.002086,0.448,,8.703878456613466e-06,0.012535843250755012
164,,,,-0.002085,0.448,,8.703878456613466e-06,0.012535843250755012
165,,,,-0.002084,0.448,,8.703878456613466e-06,0.012535843250755012
166,,,,-0.002083,0.456,,8.703878456613466e-06,0.012743194340804032
167,,,,-0.002082,0.456,,8.703878456613466e-06,0.012743194340804032
168,,,,-0.002081,0.456,,8.703878456613466e-06,0.012743194340804032
169,,,,-0.00208,0.464,,8.703878456613466e-06,0.01295056130086646
170,,,,-0.002079,0.464,,8.703878456613466e-06,0.01295056130086646
171,,,,-0.002078,0.464,,8.703878456613466e-06,0.01295056130086646
172,,,,-0.002077,0.472,,8.703878456613466e-06,0.013157943380616134
173,,,,-0.002076,0.472,,8.703878456613466e-06,0.013157943380616134
174,,,,-0.002075,0.472,,8.703878456613466e-06,0.013157943380616134
175,,,,-0.002074,0.48,,8.703878456613466e-06,0.013365339876243327
176,,,,-0.002073,0.48,,8.703878456613466e-06,0.013365339876243327
177,,,,-0.002072,0.48,,8.703878456613466e-06,0.013365339876243327
178,,,,-0.002071,0.48,,8.703878456613466e-06,0.013365339876243327
179,,,,-0.00207,0.488,,8.703878456613466e-06,0.01357275012690869
180,,,,-0.002069,0.488,,8.703878456613466e-06,0.01357275012690869
181,,,,-0.002068,0.488,,8.703878456613466e-06,0.01357275012690869
182,,,,-0.002067,0.496,,8.703878456613466e-06,0.01378017351151646
183,,,,-0.002066,0.496,,8.703878456613466e-06,0.01378017351151646
184,,,,-0.002065,0.496,,8.703878456613466e-06,0.01378017351151646
185,,,,-0.002064,0.504,,8.703878456613466e-06,0.013987609445773782
186,,,,-0.002063,0.504,,8.703878456613466e-06,0.013987609445773782
187,,,,-0.002062,0.504,,8.703878456613466e-06,0.013987609445773782
188,,,,-0.002061,0.504,,8.703878456613466e-06,0.013987609445773782
189,,,,-0.00206,0.512,,8.703878456613466e-06,0.014195057379507135
190,,,,-0.002059,0.512,,8.703878456613466e-06,0.014195057379507135
191,,,,-0.002058,0.512,,8.703878456613466e-06,0.014195057379507135
192,,,,-0.002057,0.512,,8.703878456613466e-06,0.014195057379507135
193,,,,-0.002056,0.512,,8.703878456613466e-06,0.014195057379507135
194,,,,-0.002055,0.52,,8.703878456613466e-06,0.01440251679420996
195,,,,-0.002054,0.52,,8.703878456613466e-06,0.01440251679420996
196,,,,-0.002053,0.52,,8.703878456613466e-06,0.01440251679420996
197,,,,-0.002052,0.52,,8.703878456613466e-06,0.01440251679420996
198,,,,-0.002051,0.528,,8.703878456613466e-06,0.014609987200798636
199,,,,-0.00205,0.528,,8.703878456613466e-06,0.014609987200798636
200,,,,-0.002049,0.528,,8.703878456613466e-06,0.014609987200798636
201,,,,-0.002048,0.528,,8.703878456613466e-06,0.014609987200798636
202,,,,-0.002047,0.536,,8.703878456613466e-06,0.014817468137556428
203,,,,-0.002046,0.536,,8.703878456613466e-06,0.014817468137556428
204,,,,-0.002045,0.536,,8.703878456613466e-06,0.014817468137556428
205,,,,-0.002044,0.536,,8.703878456613466e-06,0.014817468137556428
206,,,,-0.002043,0.544,,8.703878456613466e-06,0.015024959168247346
207,,,,-0.002042,0.544,,8.703878456613466e-06,0.015024959168247346
208,,,,-0.002041,0.544,,8.703878456613466e-06,0.015024959168247346
209,,,,-0.00204,0.544,,8.703878456613466e-06,0.015024959168247346
210,,,,-0.002039,0.544,,8.703878456613466e-06,0.015024959168247346
211,,,,-0.002038,0.552,,8.703878456613466e-06,0.015232459880383735
212,,,,-0.002037,0.552,,8.703878456613466e-06,0.015232459880383735
213,,,,-0.002036,0.552,,8.703878456613466e-06,0.015232459880383735
214,,,,-0.002035,0.552,,8.703878456613466e-06,0.015232459880383735
215,,,,-0.002034,0.56,,8.703878456613466e-06,0.015439969883633194
216,,,,-0.002033,0.56,,8.703878456613466e-06,0.015439969883633194
217,,,,-0.002032,0.56,,8.703878456613466e-06,0.015439969883633194
218,,,,-0.002031,0.56,,8.703878456613466e-06,0.015439969883633194
219,,,,-0.00203,0.56,,8.703878456613466e-06,0.015439969883633194
220,,,,-0.002029,0.56,,8.703878456613466e-06,0.015439969883633194
221,,,,-0.002028,0.568,,8.703878456613466e-06,0.015647488808351963
222,,,,-0.002027,0.568,,8.703878456613466e-06,0.015647488808351963
223,,,,-0.002026,0.568,,8.703878456613466e-06,0.015647488808351963
224,,,,-0.002025,0.568,,8.703878456613466e-06,0.015647488808351963
225,,,,-0.002024,0.568,,8.703878456613466e-06,0.015647488808351963
226,,,,-0.002023,0.568,,8.703878456613466e-06,0.015647488808351963
227,,,,-0.002022,0.576,,8.703878456613466e-06,0.015855016304233176
228,,,,-0.002021,0.576,,8.703878456613466e-06,0.015855016304233176
229,,,,-0.00202,0.576,,8.703878456613466e-06,0.015855016304233176
230,,,,-0.002019,0.576,,8.703878456613466e-06,0.015855016304233176
231,,,,-0.002018,0.576,,8.703878456613466e-06,0.015855016304233176
232,,,,-0.002017,0.584,,8.703878456613466e-06,0.016062552039059666
233,,,,-0.002016,0.584,,8.703878456613466e-06,0.016062552039059666
234,,,,-0.002015,0.584,,8.703878456613466e-06,0.016062552039059666
235,,,,-0.002014,0.584,,8.703878456613466e-06,0.016062552039059666
236,,,,-0.002013,0.584,,8.703878456613466e-06,0.016062552039059666
237,,,,-0.002012,0.584,,8.703878456613466e-06,0.016062552039059666
238,,,,-0.002011,0.584,,8.703878456613466e-06,0.016062552039059666
239,,,,-0.00201,0.584,,8.703878456613466e-06,0.016062552039059666
240,,,,-0.002009,0.584,,8.703878456613466e-06,0.016062552039059666
241,,,,-0.002008,0.584,,8.703878456613466e-06,0.016062552039059666
242,,,,-0.002007,0.584,,8.703878456613466e-06,0.016062552039059666
243,,,,-0.002006,0.592,,8.703878456613466e-06,0.016270095697551994
244,,,,-0.002005,0.592,,8.703878456613466e-06,0.016270095697551994
245,,,,-0.002004,0.592,,8.703878456613466e-06,0.016270095697551994
246,,,,-0.002003,0.592,,8.703878456613466e-06,0.016270095697551994
247,,,,-0.002002,0.592,,8.703878456613466e-06,0.016270095697551994
248,,,,-0.002001,0.592,,8.703878456613466e-06,0.016270095697551994
249,,,,-0.002,0.592,,8.703878456613466e-06,0.016270095697551994
250,,,,-0.001999,0.592,,8.703878456613466e-06,0.016270095697551994
251,,,,-0.001998,0.592,,8.703878456613466e-06,0.016270095697551994
252,,,,-0.001997,0.592,,8.703878456613466e-06,0.016270095697551994
253,,,,-0.001996,0.592,,8.703878456613466e-06,0.016270095697551994
254,,,,-0.001995,0.6,,8.703878456613466e-06,0.016477646980303344
255,,,,-0.001994,0.6,,8.703878456613466e-06,0.016477646980303344
256,,,,-0.001993,0.6,,8.703878456613466e-06,0.016477646980303344
257,,,,-0.001992,0.6,,8.703878456613466e-06,0.016477646980303344
258,,,,-0.001991,0.6,,8.703878456613466e-06,0.016477646980303344
259,,,,-0.00199,0.6,,8.703878456613466e-06,0.016477646980303344
260,,,,-0.001989,0.6,,8.703878456613466e-06,0.016477646980303344
261,,,,-0.001988,0.6,,8.703878456613466e-06,0.016477646980303344
262,,,,-0.001987,0.6,,8.703878456613466e-06,0.016477646980303344
263,,,,-0.001986,0.6,,8.703878456613466e-06,0.016477646980303344
264,,,,-0.001985,0.6,,8.703878456613466e-06,0.016477646980303344
265,,,,-0.001984,0.6,,8.703878456613466e-06,0.016477646980303344
266,,,,-0.001983,0.6,,8.703878456613466e-06,0.016477646980303344
267,,,,-0.001982,0.608,,8.703878456613466e-06,0.01668520560279375
268,,,,-0.001981,0.608,,8.703878456613466e-06,0.01668520560279375
269,,,,-0.00198,0.608,,8.703878456613466e-06,0.01668520560279375
270,,,,-0.001979,0.608,,8.703878456613466e-06,0.01668520560279375
271,,,,-0.001978,0.608,,8.703878456613466e-06,0.01668520560279375
272,,,,-0.001977,0.608,,8.703878456613466e-06,0.01668520560279375
273,,,,-0.001976,0.608,,8.703878456613466e-06,0.01668520560279375
274,,,,-0.001975,0.608,,8.703878456613466e-06,0.01668520560279375
275,,,,-0.001974,0.608,,8.703878456613466e-06,0.01668520560279375
276,,,,-0.001973,0.608,,8.703878456613466e-06,0.01668520560279375
277,,,,-0.001972,0.608,,8.703878456613466e-06,0.01668520560279375
278,,,,-0.001971,0.608,,8.703878456613466e-06,0.01668520560279375
279,,,,-0.00197,0.608,,8.703878456613466e-06,0.01668520560279375
280,,,,-0.001969,0.608,,8.703878456613466e-06,0.01668520560279375
281,,,,-0.001968,0.608,,8.703878456613466e-06,0.01668520560279375
282,,,,-0.001967,0.608,,8.703878456613466e-06,0.01668520560279375
283,,,,-0.001966,0.608,,8.703878456613466e-06,0.01668520560279375
284,,,,-0.001965,0.608,,8.703878456613466e-06,0.01668520560279375
285,,,,-0.001964,0.608,,8.703878456613466e-06,0.01668520560279375
286,,,,-0.001963,0.608,,8.703878456613466e-06,0.01668520560279375
287,,,,-0.001962,0.608,,8.703878456613466e-06,0.01668520560279375
288,,,,-0.001961,0.608,,8.703878456613466e-06,0.01668520560279375
289,,,,-0.00196,0.608,,8.703878456613466e-06,0.01668520560279375
290,,,,-0.001959,0.608,,8.703878456613466e-06,0.01668520560279375
291,,,,-0.001958,0.608,,8.703878456613466e-06,0.01668520560279375
292,,,,-0.001957,0.608,,8.703878456613466e-06,0.01668520560279375
293,,,,-0.001956,0.608,,8.703878456613466e-06,0.01668520560279375
294,,,,-0.001955,0.608,,8.703878456613466e-06,0.01668520560279375
295,,,,-0.001954,0.608,,8.703878456613466e-06,0.01668520560279375
