sem03/f329/exp04/databak/output/circuito_2_ch1.csv

,,Info,,Tempo (s),Tensão (V),,Incerteza de Tempo (s),Incerteza de Tensão (V)
0,Sample Interval,1.000000e-05,,-0.01229,-3.92,,8.703878456613466e-06,0.1009822385868302
1,Trigger Point,1.230000000000e+03,,-0.01228,-3.92,,8.703878456613466e-06,0.1009822385868302
2,,,,-0.01227,-3.92,,8.703878456613466e-06,0.1009822385868302
3,,,,-0.01226,-3.92,,8.703878456613466e-06,0.1009822385868302
4,,,,-0.01225,-3.92,,8.703878456613466e-06,0.1009822385868302
5,Source,CH1,,-0.01224,-3.92,,8.703878456613466e-06,0.1009822385868302
6,Vertical Units,V,,-0.01223,-3.92,,8.703878456613466e-06,0.1009822385868302
7,Vertical Scale,2.000000e+00,,-0.01222,-3.92,,8.703878456613466e-06,0.1009822385868302
8,Vertical Offset,1.600000e-01,,-0.01221,-3.92,,8.703878456613466e-06,0.1009822385868302
9,Horizontal Units,s,,-0.0122,-3.92,,8.703878456613466e-06,0.1009822385868302
10,Horizontal Scale,2.500000e-03,,-0.01219,-3.92,,8.703878456613466e-06,0.1009822385868302
11,Pt Fmt,Y,,-0.01218,-3.92,,8.703878456613466e-06,0.1009822385868302
12,Yzero,0.000000e+00,,-0.01217,-3.92,,8.703878456613466e-06,0.1009822385868302
13,Probe Atten,1.000000e+00,,-0.01216,-3.84,,8.703878456613466e-06,0.0989038566993598
14,Model Number,TBS1062,,-0.01215,-3.84,,8.703878456613466e-06,0.0989038566993598
15,Serial Number,C011224,,-0.01214,-3.92,,8.703878456613466e-06,0.1009822385868302
16,Firmware Version,FV:v26.01,,-0.01213,-3.84,,8.703878456613466e-06,0.0989038566993598
17,,,,-0.01212,-3.84,,8.703878456613466e-06,0.0989038566993598
18,,,,-0.01211,-3.84,,8.703878456613466e-06,0.0989038566993598
19,,,,-0.0121,-3.84,,8.703878456613466e-06,0.0989038566993598
20,,,,-0.01209,-3.84,,8.703878456613466e-06,0.0989038566993598
21,,,,-0.01208,-3.84,,8.703878456613466e-06,0.0989038566993598
22,,,,-0.01207,-3.84,,8.703878456613466e-06,0.0989038566993598
23,,,,-0.01206,-3.76,,8.703878456613466e-06,0.09682547820696522
24,,,,-0.01205,-3.84,,8.703878456613466e-06,0.0989038566993598
25,,,,-0.01204,-3.84,,8.703878456613466e-06,0.0989038566993598
26,,,,-0.01203,-3.76,,8.703878456613466e-06,0.09682547820696522
27,,,,-0.01202,-3.76,,8.703878456613466e-06,0.09682547820696522
28,,,,-0.01201,-3.76,,8.703878456613466e-06,0.09682547820696522
29,,,,-0.012,-3.76,,8.703878456613466e-06,0.09682547820696522
30,,,,-0.01199,-3.76,,8.703878456613466e-06,0.09682547820696522
31,,,,-0.01198,-3.68,,8.703878456613466e-06,0.09474710333307028
32,,,,-0.01197,-3.76,,8.703878456613466e-06,0.09682547820696522
33,,,,-0.01196,-3.68,,8.703878456613466e-06,0.09474710333307028
34,,,,-0.01195,-3.76,,8.703878456613466e-06,0.09682547820696522
35,,,,-0.01194,-3.76,,8.703878456613466e-06,0.09682547820696522
36,,,,-0.01193,-3.68,,8.703878456613466e-06,0.09474710333307028
37,,,,-0.01192,-3.68,,8.703878456613466e-06,0.09474710333307028
38,,,,-0.01191,-3.68,,8.703878456613466e-06,0.09474710333307028
39,,,,-0.0119,-3.68,,8.703878456613466e-06,0.09474710333307028
40,,,,-0.01189,-3.68,,8.703878456613466e-06,0.09474710333307028
41,,,,-0.01188,-3.6,,8.703878456613466e-06,0.09266873232114217
42,,,,-0.01187,-3.6,,8.703878456613466e-06,0.09266873232114217
43,,,,-0.01186,-3.6,,8.703878456613466e-06,0.09266873232114217
44,,,,-0.01185,-3.6,,8.703878456613466e-06,0.09266873232114217
45,,,,-0.01184,-3.6,,8.703878456613466e-06,0.09266873232114217
46,,,,-0.01183,-3.6,,8.703878456613466e-06,0.09266873232114217
47,,,,-0.01182,-3.6,,8.703878456613466e-06,0.09266873232114217
48,,,,-0.01181,-3.6,,8.703878456613466e-06,0.09266873232114217
49,,,,-0.0118,-3.52,,8.703878456613466e-06,0.09059036543699059
50,,,,-0.01179,-3.52,,8.703878456613466e-06,0.09059036543699059
51,,,,-0.01178,-3.52,,8.703878456613466e-06,0.09059036543699059
52,,,,-0.01177,-3.52,,8.703878456613466e-06,0.09059036543699059
53,,,,-0.01176,-3.52,,8.703878456613466e-06,0.09059036543699059
54,,,,-0.01175,-3.52,,8.703878456613466e-06,0.09059036543699059
55,,,,-0.01174,-3.52,,8.703878456613466e-06,0.09059036543699059
56,,,,-0.01173,-3.44,,8.703878456613466e-06,0.08851200297139084
57,,,,-0.01172,-3.52,,8.703878456613466e-06,0.09059036543699059
58,,,,-0.01171,-3.44,,8.703878456613466e-06,0.08851200297139084
59,,,,-0.0117,-3.44,,8.703878456613466e-06,0.08851200297139084
60,,,,-0.01169,-3.44,,8.703878456613466e-06,0.08851200297139084
61,,,,-0.01168,-3.36,,8.703878456613466e-06,0.08643364524308515
62,,,,-0.01167,-3.36,,8.703878456613466e-06,0.08643364524308515
63,,,,-0.01166,-3.36,,8.703878456613466e-06,0.08643364524308515
64,,,,-0.01165,-3.36,,8.703878456613466e-06,0.08643364524308515
65,,,,-0.01164,-3.36,,8.703878456613466e-06,0.08643364524308515
66,,,,-0.01163,-3.36,,8.703878456613466e-06,0.08643364524308515
67,,,,-0.01162,-3.36,,8.703878456613466e-06,0.08643364524308515
68,,,,-0.01161,-3.28,,8.703878456613466e-06,0.08435529260222797
69,,,,-0.0116,-3.28,,8.703878456613466e-06,0.08435529260222797
70,,,,-0.01159,-3.28,,8.703878456613466e-06,0.08435529260222797
71,,,,-0.01158,-3.28,,8.703878456613466e-06,0.08435529260222797
72,,,,-0.01157,-3.28,,8.703878456613466e-06,0.08435529260222797
73,,,,-0.01156,-3.2,,8.703878456613466e-06,0.08227694543435299
74,,,,-0.01155,-3.2,,8.703878456613466e-06,0.08227694543435299
75,,,,-0.01154,-3.2,,8.703878456613466e-06,0.08227694543435299
76,,,,-0.01153,-3.2,,8.703878456613466e-06,0.08227694543435299
77,,,,-0.01152,-3.2,,8.703878456613466e-06,0.08227694543435299
78,,,,-0.01151,-3.2,,8.703878456613466e-06,0.08227694543435299
79,,,,-0.0115,-3.12,,8.703878456613466e-06,0.08019860416495726
80,,,,-0.01149,-3.12,,8.703878456613466e-06,0.08019860416495726
81,,,,-0.01148,-3.12,,8.703878456613466e-06,0.08019860416495726
82,,,,-0.01147,-3.12,,8.703878456613466e-06,0.08019860416495726
83,,,,-0.01146,-3.12,,8.703878456613466e-06,0.08019860416495726
84,,,,-0.01145,-3.04,,8.703878456613466e-06,0.07812026926481692
85,,,,-0.01144,-3.04,,8.703878456613466e-06,0.07812026926481692
86,,,,-0.01143,-3.04,,8.703878456613466e-06,0.07812026926481692
87,,,,-0.01142,-3.04,,8.703878456613466e-06,0.07812026926481692
88,,,,-0.01141,-2.96,,8.703878456613466e-06,0.07604194125617453
89,,,,-0.0114,-2.96,,8.703878456613466e-06,0.07604194125617453
90,,,,-0.01139,-2.96,,8.703878456613466e-06,0.07604194125617453
91,,,,-0.01138,-2.88,,8.703878456613466e-06,0.07396362071996948
92,,,,-0.01137,-2.88,,8.703878456613466e-06,0.07396362071996948
93,,,,-0.01136,-2.96,,8.703878456613466e-06,0.07604194125617453
94,,,,-0.01135,-2.88,,8.703878456613466e-06,0.07396362071996948
95,,,,-0.01134,-2.88,,8.703878456613466e-06,0.07396362071996948
96,,,,-0.01133,-2.8,,8.703878456613466e-06,0.0718853083043225
97,,,,-0.01132,-2.8,,8.703878456613466e-06,0.0718853083043225
98,,,,-0.01131,-2.8,,8.703878456613466e-06,0.0718853083043225
99,,,,-0.0113,-2.8,,8.703878456613466e-06,0.0718853083043225
100,,,,-0.01129,-2.8,,8.703878456613466e-06,0.0718853083043225
101,,,,-0.01128,-2.8,,8.703878456613466e-06,0.0718853083043225
102,,,,-0.01127,-2.72,,8.703878456613466e-06,0.06980700473453577
103,,,,-0.01126,-2.72,,8.703878456613466e-06,0.06980700473453577
104,,,,-0.01125,-2.72,,8.703878456613466e-06,0.06980700473453577
105,,,,-0.01124,-2.72,,8.703878456613466e-06,0.06980700473453577
106,,,,-0.01123,-2.72,,8.703878456613466e-06,0.06980700473453577
107,,,,-0.01122,-2.64,,8.703878456613466e-06,0.06772871082493377
108,,,,-0.01121,-2.64,,8.703878456613466e-06,0.06772871082493377
109,,,,-0.0112,-2.64,,8.703878456613466e-06,0.06772871082493377
110,,,,-0.01119,-2.64,,8.703878456613466e-06,0.06772871082493377
111,,,,-0.01118,-2.56,,8.703878456613466e-06,0.06565042749295315
112,,,,-0.01117,-2.56,,8.703878456613466e-06,0.06565042749295315
113,,,,-0.01116,-2.56,,8.703878456613466e-06,0.06565042749295315
114,,,,-0.01115,-2.48,,8.703878456613466e-06,0.06357215577599598
115,,,,-0.01114,-2.56,,8.703878456613466e-06,0.06565042749295315
116,,,,-0.01113,-2.48,,8.703878456613466e-06,0.06357215577599598
117,,,,-0.01112,-2.48,,8.703878456613466e-06,0.06357215577599598
118,,,,-0.01111,-2.4,,8.703878456613466e-06,0.06149389685169983
119,,,,-0.0111,-2.4,,8.703878456613466e-06,0.06149389685169983
120,,,,-0.01109,-2.4,,8.703878456613466e-06,0.06149389685169983
121,,,,-0.01108,-2.4,,8.703878456613466e-06,0.06149389685169983
122,,,,-0.01107,-2.32,,8.703878456613466e-06,0.059415652062461605
123,,,,-0.01106,-2.32,,8.703878456613466e-06,0.059415652062461605
124,,,,-0.01105,-2.32,,8.703878456613466e-06,0.059415652062461605
125,,,,-0.01104,-2.32,,8.703878456613466e-06,0.059415652062461605
126,,,,-0.01103,-2.24,,8.703878456613466e-06,0.057337422945293766
127,,,,-0.01102,-2.32,,8.703878456613466e-06,0.059415652062461605
128,,,,-0.01101,-2.24,,8.703878456613466e-06,0.057337422945293766
129,,,,-0.011,-2.24,,8.703878456613466e-06,0.057337422945293766
130,,,,-0.01099,-2.16,,8.703878456613466e-06,0.05525921126841659
131,,,,-0.01098,-2.16,,8.703878456613466e-06,0.05525921126841659
132,,,,-0.01097,-2.16,,8.703878456613466e-06,0.05525921126841659
133,,,,-0.01096,-2.16,,8.703878456613466e-06,0.05525921126841659
134,,,,-0.01095,-2.08,,8.703878456613466e-06,0.05318101907642894
135,,,,-0.01094,-2.08,,8.703878456613466e-06,0.05318101907642894
136,,,,-0.01093,-2.08,,8.703878456613466e-06,0.05318101907642894
137,,,,-0.01092,-2.08,,8.703878456613466e-06,0.05318101907642894
138,,,,-0.01091,-2.08,,8.703878456613466e-06,0.05318101907642894
139,,,,-0.0109,-2.0,,8.703878456613466e-06,0.05110284874649846
140,,,,-0.01089,-2.0,,8.703878456613466e-06,0.05110284874649846
141,,,,-0.01088,-1.92,,8.703878456613466e-06,0.049024703058840643
142,,,,-0.01087,-1.92,,8.703878456613466e-06,0.049024703058840643
143,,,,-0.01086,-1.92,,8.703878456613466e-06,0.049024703058840643
144,,,,-0.01085,-1.92,,8.703878456613466e-06,0.049024703058840643
145,,,,-0.01084,-1.84,,8.703878456613466e-06,0.04694658528591296
146,,,,-0.01083,-1.84,,8.703878456613466e-06,0.04694658528591296
147,,,,-0.01082,-1.84,,8.703878456613466e-06,0.04694658528591296
148,,,,-0.01081,-1.76,,8.703878456613466e-06,0.04486849930638977
149,,,,-0.0108,-1.76,,8.703878456613466e-06,0.04486849930638977
150,,,,-0.01079,-1.76,,8.703878456613466e-06,0.04486849930638977
151,,,,-0.01078,-1.76,,8.703878456613466e-06,0.04486849930638977
152,,,,-0.01077,-1.68,,8.703878456613466e-06,0.04279044975233959
153,,,,-0.01076,-1.68,,8.703878456613466e-06,0.04279044975233959
154,,,,-0.01075,-1.68,,8.703878456613466e-06,0.04279044975233959
155,,,,-0.01074,-1.6,,8.703878456613466e-06,0.040712442201463424
156,,,,-0.01073,-1.6,,8.703878456613466e-06,0.040712442201463424
157,,,,-0.01072,-1.6,,8.703878456613466e-06,0.040712442201463424
158,,,,-0.01071,-1.6,,8.703878456613466e-06,0.040712442201463424
159,,,,-0.0107,-1.52,,8.703878456613466e-06,0.03863448343135314
160,,,,-0.01069,-1.52,,8.703878456613466e-06,0.03863448343135314
161,,,,-0.01068,-1.52,,8.703878456613466e-06,0.03863448343135314
162,,,,-0.01067,-1.52,,8.703878456613466e-06,0.03863448343135314
163,,,,-0.01066,-1.44,,8.703878456613466e-06,0.03655658176043679
164,,,,-0.01065,-1.44,,8.703878456613466e-06,0.03655658176043679
165,,,,-0.01064,-1.44,,8.703878456613466e-06,0.03655658176043679
166,,,,-0.01063,-1.36,,8.703878456613466e-06,0.0344787475121632
167,,,,-0.01062,-1.36,,8.703878456613466e-06,0.0344787475121632
168,,,,-0.01061,-1.36,,8.703878456613466e-06,0.0344787475121632
169,,,,-0.0106,-1.36,,8.703878456613466e-06,0.0344787475121632
170,,,,-0.01059,-1.28,,8.703878456613466e-06,0.032400993657718265
171,,,,-0.01058,-1.28,,8.703878456613466e-06,0.032400993657718265
172,,,,-0.01057,-1.28,,8.703878456613466e-06,0.032400993657718265
173,,,,-0.01056,-1.2,,8.703878456613466e-06,0.030323336722852576
174,,,,-0.01055,-1.2,,8.703878456613466e-06,0.030323336722852576
175,,,,-0.01054,-1.2,,8.703878456613466e-06,0.030323336722852576
176,,,,-0.01053,-1.2,,8.703878456613466e-06,0.030323336722852576
177,,,,-0.01052,-1.12,,8.703878456613466e-06,0.02824579809471667
178,,,,-0.01051,-1.04,,8.703878456613466e-06,0.02616840595083124
179,,,,-0.0105,-1.12,,8.703878456613466e-06,0.02824579809471667
180,,,,-0.01049,-1.04,,8.703878456613466e-06,0.02616840595083124
181,,,,-0.01048,-1.04,,8.703878456613466e-06,0.02616840595083124
182,,,,-0.01047,-1.04,,8.703878456613466e-06,0.02616840595083124
183,,,,-0.01046,-1.04,,8.703878456613466e-06,0.02616840595083124
184,,,,-0.01045,-0.96,,8.703878456613466e-06,0.02409119818538505
185,,,,-0.01044,-0.96,,8.703878456613466e-06,0.02409119818538505
186,,,,-0.01043,-0.88,,8.703878456613466e-06,0.022014226990914303
187,,,,-0.01042,-0.88,,8.703878456613466e-06,0.022014226990914303
188,,,,-0.01041,-0.88,,8.703878456613466e-06,0.022014226990914303
189,,,,-0.0104,-0.8,,8.703878456613466e-06,0.019937566301018284
190,,,,-0.01039,-0.8,,8.703878456613466e-06,0.019937566301018284
191,,,,-0.01038,-0.8,,8.703878456613466e-06,0.019937566301018284
192,,,,-0.01037,-0.72,,8.703878456613466e-06,0.01786132441918851
193,,,,-0.01036,-0.72,,8.703878456613466e-06,0.01786132441918851
194,,,,-0.01035,-0.72,,8.703878456613466e-06,0.01786132441918851
195,,,,-0.01034,-0.72,,8.703878456613466e-06,0.01786132441918851
196,,,,-0.01033,-0.64,,8.703878456613466e-06,0.015785666600036247
197,,,,-0.01032,-0.56,,8.703878456613466e-06,0.013710858106168993
198,,,,-0.01031,-0.56,,8.703878456613466e-06,0.013710858106168993
199,,,,-0.0103,-0.56,,8.703878456613466e-06,0.013710858106168993
200,,,,-0.01029,-0.56,,8.703878456613466e-06,0.013710858106168993
201,,,,-0.01028,-0.56,,8.703878456613466e-06,0.013710858106168993
202,,,,-0.01027,-0.48,,8.703878456613466e-06,0.01163735322173818
203,,,,-0.01026,-0.48,,8.703878456613466e-06,0.01163735322173818
204,,,,-0.01025,-0.4,,8.703878456613466e-06,0.009565999686781302
205,,,,-0.01024,-0.4,,8.703878456613466e-06,0.009565999686781302
206,,,,-0.01023,-0.4,,8.703878456613466e-06,0.009565999686781302
207,,,,-0.01022,-0.4,,8.703878456613466e-06,0.009565999686781302
208,,,,-0.01021,-0.4,,8.703878456613466e-06,0.009565999686781302
209,,,,-0.0102,-0.32,,8.703878456613466e-06,0.0074985805328408655
210,,,,-0.01019,-0.32,,8.703878456613466e-06,0.0074985805328408655
211,,,,-0.01018,-0.32,,8.703878456613466e-06,0.0074985805328408655
212,,,,-0.01017,-0.24,,8.703878456613466e-06,0.005439583624460608
213,,,,-0.01016,-0.24,,8.703878456613466e-06,0.005439583624460608
214,,,,-0.01015,-0.24,,8.703878456613466e-06,0.005439583624460608
215,,,,-0.01014,-0.16,,8.703878456613466e-06,0.0034043251912089707
216,,,,-0.01013,-0.16,,8.703878456613466e-06,0.0034043251912089707
217,,,,-0.01012,-0.08,,8.703878456613466e-06,0.001493248139962009
218,,,,-0.01011,-0.08,,8.703878456613466e-06,0.001493248139962009
219,,,,-0.0101,-0.08,,8.703878456613466e-06,0.001493248139962009
220,,,,-0.01009,-0.08,,8.703878456613466e-06,0.001493248139962009
221,,,,-0.01008,0.0,,8.703878456613466e-06,0.0012288816084147407
222,,,,-0.01007,0.0,,8.703878456613466e-06,0.0012288816084147407
223,,,,-0.01006,0.0,,8.703878456613466e-06,0.0012288816084147407
224,,,,-0.01005,0.08,,8.703878456613466e-06,0.003070913546080384
225,,,,-0.01004,0.08,,8.703878456613466e-06,0.003070913546080384
226,,,,-0.01003,0.16,,8.703878456613466e-06,0.005098124165563251
227,,,,-0.01002,0.16,,8.703878456613466e-06,0.005098124165563251
228,,,,-0.01001,0.16,,8.703878456613466e-06,0.005098124165563251
229,,,,-0.01,0.16,,8.703878456613466e-06,0.005098124165563251
230,,,,-0.00999,0.16,,8.703878456613466e-06,0.005098124165563251
231,,,,-0.00998,0.24,,8.703878456613466e-06,0.007154804679898676
232,,,,-0.00997,0.24,,8.703878456613466e-06,0.007154804679898676
233,,,,-0.00996,0.32,,8.703878456613466e-06,0.009221257506842544
234,,,,-0.00995,0.32,,8.703878456613466e-06,0.009221257506842544
235,,,,-0.00994,0.32,,8.703878456613466e-06,0.009221257506842544
236,,,,-0.00993,0.4,,8.703878456613466e-06,0.01129211893346417
237,,,,-0.00992,0.4,,8.703878456613466e-06,0.01129211893346417
238,,,,-0.00991,0.4,,8.703878456613466e-06,0.01129211893346417
239,,,,-0.0099,0.4,,8.703878456613466e-06,0.01129211893346417
240,,,,-0.00989,0.4,,8.703878456613466e-06,0.01129211893346417
241,,,,-0.00988,0.48,,8.703878456613466e-06,0.013365339876243327
242,,,,-0.00987,0.48,,8.703878456613466e-06,0.013365339876243327
243,,,,-0.00986,0.56,,8.703878456613466e-06,0.015439969883633194
244,,,,-0.00985,0.56,,8.703878456613466e-06,0.015439969883633194
245,,,,-0.00984,0.64,,8.703878456613466e-06,0.01751550827145761
246,,,,-0.00983,0.64,,8.703878456613466e-06,0.01751550827145761
247,,,,-0.00982,0.64,,8.703878456613466e-06,0.01751550827145761
248,,,,-0.00981,0.64,,8.703878456613466e-06,0.01751550827145761
249,,,,-0.0098,0.64,,8.703878456613466e-06,0.01751550827145761
250,,,,-0.00979,0.72,,8.703878456613466e-06,0.019591666340755702
251,,,,-0.00978,0.72,,8.703878456613466e-06,0.019591666340755702
252,,,,-0.00977,0.72,,8.703878456613466e-06,0.019591666340755702
253,,,,-0.00976,0.8,,8.703878456613466e-06,0.02166826596678885
254,,,,-0.00975,0.8,,8.703878456613466e-06,0.02166826596678885
255,,,,-0.00974,0.8,,8.703878456613466e-06,0.02166826596678885
256,,,,-0.00973,0.88,,8.703878456613466e-06,0.02374519130281961
257,,,,-0.00972,0.88,,8.703878456613466e-06,0.02374519130281961
258,,,,-0.00971,0.88,,8.703878456613466e-06,0.02374519130281961
259,,,,-0.0097,0.88,,8.703878456613466e-06,0.02374519130281961
260,,,,-0.00969,0.96,,8.703878456613466e-06,0.02582236375716793
261,,,,-0.00968,0.96,,8.703878456613466e-06,0.02582236375716793
262,,,,-0.00967,0.96,,8.703878456613466e-06,0.02582236375716793
263,,,,-0.00966,0.96,,8.703878456613466e-06,0.02582236375716793
264,,,,-0.00965,1.04,,8.703878456613466e-06,0.027899728135010557
265,,,,-0.00964,1.04,,8.703878456613466e-06,0.027899728135010557
266,,,,-0.00963,1.04,,8.703878456613466e-06,0.027899728135010557
267,,,,-0.00962,1.04,,8.703878456613466e-06,0.027899728135010557
268,,,,-0.00961,1.12,,8.703878456613466e-06,0.029977244536606436
269,,,,-0.0096,1.12,,8.703878456613466e-06,0.029977244536606436
270,,,,-0.00959,1.12,,8.703878456613466e-06,0.029977244536606436
271,,,,-0.00958,1.2,,8.703878456613466e-06,0.03205488340343012
272,,,,-0.00957,1.2,,8.703878456613466e-06,0.03205488340343012
273,,,,-0.00956,1.28,,8.703878456613466e-06,0.034132622372262875
274,,,,-0.00955,1.28,,8.703878456613466e-06,0.034132622372262875
275,,,,-0.00954,1.28,,8.703878456613466e-06,0.034132622372262875
276,,,,-0.00953,1.28,,8.703878456613466e-06,0.034132622372262875
277,,,,-0.00952,1.28,,8.703878456613466e-06,0.034132622372262875
278,,,,-0.00951,1.36,,8.703878456613466e-06,0.03621044421168429
279,,,,-0.0095,1.36,,8.703878456613466e-06,0.03621044421168429
280,,,,-0.00949,1.36,,8.703878456613466e-06,0.03621044421168429
281,,,,-0.00948,1.36,,8.703878456613466e-06,0.03621044421168429
282,,,,-0.00947,1.44,,8.703878456613466e-06,0.03828833543009541
283,,,,-0.00946,1.44,,8.703878456613466e-06,0.03828833543009541
284,,,,-0.00945,1.52,,8.703878456613466e-06,0.04036628531345807
285,,,,-0.00944,1.52,,8.703878456613466e-06,0.04036628531345807
286,,,,-0.00943,1.52,,8.703878456613466e-06,0.04036628531345807
287,,,,-0.00942,1.52,,8.703878456613466e-06,0.04036628531345807
288,,,,-0.00941,1.52,,8.703878456613466e-06,0.04036628531345807
289,,,,-0.0094,1.6,,8.703878456613466e-06,0.04244428524557223
290,,,,-0.00939,1.6,,8.703878456613466e-06,0.04244428524557223
291,,,,-0.00938,1.6,,8.703878456613466e-06,0.04244428524557223
292,,,,-0.00937,1.68,,8.703878456613466e-06,0.04452232821863092
293,,,,-0.00936,1.68,,8.703878456613466e-06,0.04452232821863092
294,,,,-0.00935,1.68,,8.703878456613466e-06,0.04452232821863092
295,,,,-0.00934,1.68,,8.703878456613466e-06,0.04452232821863092
296,,,,-0.00933,1.76,,8.703878456613466e-06,0.046600408474685065
297,,,,-0.00932,1.76,,8.703878456613466e-06,0.046600408474685065
298,,,,-0.00931,1.76,,8.703878456613466e-06,0.046600408474685065
299,,,,-0.0093,1.76,,8.703878456613466e-06,0.046600408474685065
300,,,,-0.00929,1.76,,8.703878456613466e-06,0.046600408474685065
301,,,,-0.00928,1.76,,8.703878456613466e-06,0.046600408474685065
302,,,,-0.00927,1.84,,8.703878456613466e-06,0.04867852123891501
303,,,,-0.00926,1.84,,8.703878456613466e-06,0.04867852123891501
304,,,,-0.00925,1.92,,8.703878456613466e-06,0.050756662518407374
