sem03/f329/exp04/databak/output/circuito_3_08_freq_10000hz_ch2.csv

,,Info,,Tempo (s),Tensão (V),,Incerteza de Tempo (s),Incerteza de Tensão (V)
0,Sample Interval,1.000000e-07,,-0.0002249,-1.7,,8.703878456613466e-06,0.043309958439226186
1,Trigger Point,2.250000000000e+03,,-0.0002248,-1.68,,8.703878456613466e-06,0.04279044975233959
2,,,,-0.0002247,-1.68,,8.703878456613466e-06,0.04279044975233959
3,,,,-0.0002246,-1.68,,8.703878456613466e-06,0.04279044975233959
4,,,,-0.0002245,-1.68,,8.703878456613466e-06,0.04279044975233959
5,Source,CH2,,-0.0002244,-1.66,,8.703878456613466e-06,0.042270943684846914
6,Vertical Units,V,,-0.0002243,-1.66,,8.703878456613466e-06,0.042270943684846914
7,Vertical Scale,5.000000e-01,,-0.0002242,-1.66,,8.703878456613466e-06,0.042270943684846914
8,Vertical Offset,0.000000e+00,,-0.0002241,-1.66,,8.703878456613466e-06,0.042270943684846914
9,Horizontal Units,s,,-0.000224,-1.64,,8.703878456613466e-06,0.04175144033452618
10,Horizontal Scale,2.500000e-05,,-0.0002239,-1.64,,8.703878456613466e-06,0.04175144033452618
11,Pt Fmt,Y,,-0.0002238,-1.64,,8.703878456613466e-06,0.04175144033452618
12,Yzero,0.000000e+00,,-0.0002237,-1.62,,8.703878456613466e-06,0.041231939804082705
13,Probe Atten,1.000000e+00,,-0.0002236,-1.62,,8.703878456613466e-06,0.041231939804082705
14,Model Number,TBS1062,,-0.0002235,-1.62,,8.703878456613466e-06,0.041231939804082705
15,Serial Number,C011224,,-0.0002234,-1.62,,8.703878456613466e-06,0.041231939804082705
16,Firmware Version,FV:v26.01,,-0.0002233,-1.6,,8.703878456613466e-06,0.040712442201463424
17,,,,-0.0002232,-1.6,,8.703878456613466e-06,0.040712442201463424
18,,,,-0.0002231,-1.6,,8.703878456613466e-06,0.040712442201463424
19,,,,-0.000223,-1.6,,8.703878456613466e-06,0.040712442201463424
20,,,,-0.0002229,-1.58,,8.703878456613466e-06,0.04019294764019553
21,,,,-0.0002228,-1.58,,8.703878456613466e-06,0.04019294764019553
22,,,,-0.0002227,-1.58,,8.703878456613466e-06,0.04019294764019553
23,,,,-0.0002226,-1.56,,8.703878456613466e-06,0.039673456239751784
24,,,,-0.0002225,-1.56,,8.703878456613466e-06,0.039673456239751784
25,,,,-0.0002224,-1.56,,8.703878456613466e-06,0.039673456239751784
26,,,,-0.0002223,-1.56,,8.703878456613466e-06,0.039673456239751784
27,,,,-0.0002222,-1.54,,8.703878456613466e-06,0.03915396812594477
28,,,,-0.0002221,-1.54,,8.703878456613466e-06,0.03915396812594477
29,,,,-0.000222,-1.54,,8.703878456613466e-06,0.03915396812594477
30,,,,-0.0002219,-1.52,,8.703878456613466e-06,0.03863448343135314
31,,,,-0.0002218,-1.52,,8.703878456613466e-06,0.03863448343135314
32,,,,-0.0002217,-1.52,,8.703878456613466e-06,0.03863448343135314
33,,,,-0.0002216,-1.5,,8.703878456613466e-06,0.03811500229578243
34,,,,-0.0002215,-1.5,,8.703878456613466e-06,0.03811500229578243
35,,,,-0.0002214,-1.5,,8.703878456613466e-06,0.03811500229578243
36,,,,-0.0002213,-1.48,,8.703878456613466e-06,0.03759552486676439
37,,,,-0.0002212,-1.48,,8.703878456613466e-06,0.03759552486676439
38,,,,-0.0002211,-1.46,,8.703878456613466e-06,0.037076051300098015
39,,,,-0.000221,-1.46,,8.703878456613466e-06,0.037076051300098015
40,,,,-0.0002209,-1.46,,8.703878456613466e-06,0.037076051300098015
41,,,,-0.0002208,-1.46,,8.703878456613466e-06,0.037076051300098015
42,,,,-0.0002207,-1.44,,8.703878456613466e-06,0.03655658176043679
43,,,,-0.0002206,-1.44,,8.703878456613466e-06,0.03655658176043679
44,,,,-0.0002205,-1.44,,8.703878456613466e-06,0.03655658176043679
45,,,,-0.0002204,-1.42,,8.703878456613466e-06,0.03603711642192671
46,,,,-0.0002203,-1.42,,8.703878456613466e-06,0.03603711642192671
47,,,,-0.0002202,-1.4,,8.703878456613466e-06,0.03551765546890025
48,,,,-0.0002201,-1.4,,8.703878456613466e-06,0.03551765546890025
49,,,,-0.00022,-1.4,,8.703878456613466e-06,0.03551765546890025
50,,,,-0.0002199,-1.38,,8.703878456613466e-06,0.03499819909663209
51,,,,-0.0002198,-1.38,,8.703878456613466e-06,0.03499819909663209
52,,,,-0.0002197,-1.36,,8.703878456613466e-06,0.0344787475121632
53,,,,-0.0002196,-1.36,,8.703878456613466e-06,0.0344787475121632
54,,,,-0.0002195,-1.36,,8.703878456613466e-06,0.0344787475121632
55,,,,-0.0002194,-1.34,,8.703878456613466e-06,0.03395930093520035
56,,,,-0.0002193,-1.34,,8.703878456613466e-06,0.03395930093520035
57,,,,-0.0002192,-1.32,,8.703878456613466e-06,0.03343985959909969
58,,,,-0.0002191,-1.32,,8.703878456613466e-06,0.03343985959909969
59,,,,-0.000219,-1.32,,8.703878456613466e-06,0.03343985959909969
60,,,,-0.0002189,-1.3,,8.703878456613466e-06,0.0329204237519431
61,,,,-0.0002188,-1.3,,8.703878456613466e-06,0.0329204237519431
62,,,,-0.0002187,-1.28,,8.703878456613466e-06,0.032400993657718265
63,,,,-0.0002186,-1.28,,8.703878456613466e-06,0.032400993657718265
64,,,,-0.0002185,-1.28,,8.703878456613466e-06,0.032400993657718265
65,,,,-0.0002184,-1.26,,8.703878456613466e-06,0.031881569597613915
66,,,,-0.0002183,-1.26,,8.703878456613466e-06,0.031881569597613915
67,,,,-0.0002182,-1.24,,8.703878456613466e-06,0.03136215187144369
68,,,,-0.0002181,-1.24,,8.703878456613466e-06,0.03136215187144369
69,,,,-0.000218,-1.22,,8.703878456613466e-06,0.030842740799214
70,,,,-0.0002179,-1.22,,8.703878456613466e-06,0.030842740799214
71,,,,-0.0002178,-1.22,,8.703878456613466e-06,0.030842740799214
72,,,,-0.0002177,-1.2,,8.703878456613466e-06,0.030323336722852576
73,,,,-0.0002176,-1.2,,8.703878456613466e-06,0.030323336722852576
74,,,,-0.0002175,-1.18,,8.703878456613466e-06,0.029803940008118045
75,,,,-0.0002174,-1.18,,8.703878456613466e-06,0.029803940008118045
76,,,,-0.0002173,-1.16,,8.703878456613466e-06,0.02928455104671232
77,,,,-0.0002172,-1.16,,8.703878456613466e-06,0.02928455104671232
78,,,,-0.0002171,-1.14,,8.703878456613466e-06,0.02876517025862179
79,,,,-0.000217,-1.14,,8.703878456613466e-06,0.02876517025862179
80,,,,-0.0002169,-1.14,,8.703878456613466e-06,0.02876517025862179
81,,,,-0.0002168,-1.12,,8.703878456613466e-06,0.02824579809471667
82,,,,-0.0002167,-1.12,,8.703878456613466e-06,0.02824579809471667
83,,,,-0.0002166,-1.1,,8.703878456613466e-06,0.02772643503964222
84,,,,-0.0002165,-1.1,,8.703878456613466e-06,0.02772643503964222
85,,,,-0.0002164,-1.08,,8.703878456613466e-06,0.02720708161504096
86,,,,-0.0002163,-1.08,,8.703878456613466e-06,0.02720708161504096
87,,,,-0.0002162,-1.06,,8.703878456613466e-06,0.02668773838315079
88,,,,-0.0002161,-1.06,,8.703878456613466e-06,0.02668773838315079
89,,,,-0.000216,-1.04,,8.703878456613466e-06,0.02616840595083124
90,,,,-0.0002159,-1.04,,8.703878456613466e-06,0.02616840595083124
91,,,,-0.0002158,-1.02,,8.703878456613466e-06,0.025649084974078508
92,,,,-0.0002157,-1.02,,8.703878456613466e-06,0.025649084974078508
93,,,,-0.0002156,-1.0,,8.703878456613466e-06,0.025129776163099818
94,,,,-0.0002155,-1.0,,8.703878456613466e-06,0.025129776163099818
95,,,,-0.0002154,-0.98,,8.703878456613466e-06,0.02461048028802973
96,,,,-0.0002153,-0.98,,8.703878456613466e-06,0.02461048028802973
97,,,,-0.0002152,-0.96,,8.703878456613466e-06,0.02409119818538505
98,,,,-0.0002151,-0.96,,8.703878456613466e-06,0.02409119818538505
99,,,,-0.000215,-0.94,,8.703878456613466e-06,0.023571930765372184
100,,,,-0.0002149,-0.94,,8.703878456613466e-06,0.023571930765372184
101,,,,-0.0002148,-0.94,,8.703878456613466e-06,0.023571930765372184
102,,,,-0.0002147,-0.92,,8.703878456613466e-06,0.023052679020181144
103,,,,-0.0002146,-0.9,,8.703878456613466e-06,0.02253344403342507
104,,,,-0.0002145,-0.9,,8.703878456613466e-06,0.02253344403342507
105,,,,-0.0002144,-0.9,,8.703878456613466e-06,0.02253344403342507
106,,,,-0.0002143,-0.88,,8.703878456613466e-06,0.022014226990914303
107,,,,-0.0002142,-0.86,,8.703878456613466e-06,0.021495029192990175
108,,,,-0.0002141,-0.86,,8.703878456613466e-06,0.021495029192990175
109,,,,-0.000214,-0.86,,8.703878456613466e-06,0.021495029192990175
110,,,,-0.0002139,-0.84,,8.703878456613466e-06,0.02097585206868841
111,,,,-0.0002138,-0.84,,8.703878456613466e-06,0.02097585206868841
112,,,,-0.0002137,-0.82,,8.703878456613466e-06,0.020456697192056682
113,,,,-0.0002136,-0.8,,8.703878456613466e-06,0.019937566301018284
114,,,,-0.0002135,-0.8,,8.703878456613466e-06,0.019937566301018284
115,,,,-0.0002134,-0.78,,8.703878456613466e-06,0.019418461319257507
116,,,,-0.0002133,-0.78,,8.703878456613466e-06,0.019418461319257507
117,,,,-0.0002132,-0.76,,8.703878456613466e-06,0.01889938438170672
118,,,,-0.0002131,-0.76,,8.703878456613466e-06,0.01889938438170672
119,,,,-0.000213,-0.74,,8.703878456613466e-06,0.01838033786434569
120,,,,-0.0002129,-0.74,,8.703878456613466e-06,0.01838033786434569
121,,,,-0.0002128,-0.72,,8.703878456613466e-06,0.01786132441918851
122,,,,-0.0002127,-0.72,,8.703878456613466e-06,0.01786132441918851
123,,,,-0.0002126,-0.7,,8.703878456613466e-06,0.017342347015542617
124,,,,-0.0002125,-0.7,,8.703878456613466e-06,0.017342347015542617
125,,,,-0.0002124,-0.68,,8.703878456613466e-06,0.016823408988891043
126,,,,-0.0002123,-0.66,,8.703878456613466e-06,0.016304514099092313
127,,,,-0.0002122,-0.66,,8.703878456613466e-06,0.016304514099092313
128,,,,-0.0002121,-0.64,,8.703878456613466e-06,0.015785666600036247
129,,,,-0.000212,-0.64,,8.703878456613466e-06,0.015785666600036247
130,,,,-0.0002119,-0.62,,8.703878456613466e-06,0.015266871323473579
131,,,,-0.0002118,-0.62,,8.703878456613466e-06,0.015266871323473579
132,,,,-0.0002117,-0.6,,8.703878456613466e-06,0.014748133780499143
133,,,,-0.0002116,-0.6,,8.703878456613466e-06,0.014748133780499143
134,,,,-0.0002115,-0.58,,8.703878456613466e-06,0.014229460285179475
135,,,,-0.0002114,-0.56,,8.703878456613466e-06,0.013710858106168993
136,,,,-0.0002113,-0.56,,8.703878456613466e-06,0.013710858106168993
137,,,,-0.0002112,-0.54,,8.703878456613466e-06,0.013192335653988642
138,,,,-0.0002111,-0.54,,8.703878456613466e-06,0.013192335653988642
139,,,,-0.000211,-0.52,,8.703878456613466e-06,0.012673902714140579
140,,,,-0.0002109,-0.52,,8.703878456613466e-06,0.012673902714140579
141,,,,-0.0002108,-0.5,,8.703878456613466e-06,0.012155570739685569
142,,,,-0.0002107,-0.5,,8.703878456613466e-06,0.012155570739685569
143,,,,-0.0002106,-0.48,,8.703878456613466e-06,0.01163735322173818
144,,,,-0.0002105,-0.48,,8.703878456613466e-06,0.01163735322173818
145,,,,-0.0002104,-0.46,,8.703878456613466e-06,0.011119266163173717
146,,,,-0.0002103,-0.44,,8.703878456613466e-06,0.010601328690664201
147,,,,-0.0002102,-0.44,,8.703878456613466e-06,0.010601328690664201
148,,,,-0.0002101,-0.42,,8.703878456613466e-06,0.01008356385448617
149,,,,-0.00021,-0.42,,8.703878456613466e-06,0.01008356385448617
150,,,,-0.0002099,-0.4,,8.703878456613466e-06,0.009565999686781302
151,,,,-0.0002098,-0.4,,8.703878456613466e-06,0.009565999686781302
152,,,,-0.0002097,-0.38,,8.703878456613466e-06,0.00904867062100837
153,,,,-0.0002096,-0.36,,8.703878456613466e-06,0.008531619424675481
154,,,,-0.0002095,-0.36,,8.703878456613466e-06,0.008531619424675481
155,,,,-0.0002094,-0.34,,8.703878456613466e-06,0.008014899875076418
156,,,,-0.0002093,-0.34,,8.703878456613466e-06,0.008014899875076418
157,,,,-0.0002092,-0.32,,8.703878456613466e-06,0.0074985805328408655
158,,,,-0.0002091,-0.32,,8.703878456613466e-06,0.0074985805328408655
159,,,,-0.000209,-0.3,,8.703878456613466e-06,0.006982750175074288
160,,,,-0.0002089,-0.28,,8.703878456613466e-06,0.006467525802615713
161,,,,-0.0002088,-0.28,,8.703878456613466e-06,0.006467525802615713
162,,,,-0.0002087,-0.26,,8.703878456613466e-06,0.005953064757542957
163,,,,-0.0002086,-0.26,,8.703878456613466e-06,0.005953064757542957
164,,,,-0.0002085,-0.24,,8.703878456613466e-06,0.005439583624460608
165,,,,-0.0002084,-0.24,,8.703878456613466e-06,0.005439583624460608
166,,,,-0.0002083,-0.22,,8.703878456613466e-06,0.00492738876155515
167,,,,-0.0002082,-0.22,,8.703878456613466e-06,0.00492738876155515
168,,,,-0.0002081,-0.2,,8.703878456613466e-06,0.0044169276660932545
169,,,,-0.000208,-0.18,,8.703878456613466e-06,0.003908879635841962
170,,,,-0.0002079,-0.18,,8.703878456613466e-06,0.003908879635841962
171,,,,-0.0002078,-0.16,,8.703878456613466e-06,0.0034043251912089707
172,,,,-0.0002077,-0.16,,8.703878456613466e-06,0.0034043251912089707
173,,,,-0.0002076,-0.14,,8.703878456613466e-06,0.0029050851979761285
174,,,,-0.0002075,-0.12,,8.703878456613466e-06,0.002414458532984155
175,,,,-0.0002074,-0.12,,8.703878456613466e-06,0.002414458532984155
176,,,,-0.0002073,-0.1,,8.703878456613466e-06,0.0019389945867639754
177,,,,-0.0002072,-0.1,,8.703878456613466e-06,0.0019389945867639754
178,,,,-0.0002071,-0.08,,8.703878456613466e-06,0.001493248139962009
179,,,,-0.000207,-0.06,,8.703878456613466e-06,0.0011134989930395086
180,,,,-0.0002069,-0.06,,8.703878456613466e-06,0.0011134989930395086
181,,,,-0.0002068,-0.04,,8.703878456613466e-06,0.0008888025694719834
182,,,,-0.0002067,-0.04,,8.703878456613466e-06,0.0008888025694719834
183,,,,-0.0002066,-0.02,,8.703878456613466e-06,0.0009381151355244195
184,,,,-0.0002065,-0.02,,8.703878456613466e-06,0.0009381151355244195
185,,,,-0.0002064,0.0,,8.703878456613466e-06,0.0012288816084147407
186,,,,-0.0002063,0.02,,8.703878456613466e-06,0.0016371438566906696
187,,,,-0.0002062,0.02,,8.703878456613466e-06,0.0016371438566906696
188,,,,-0.0002061,0.04,,8.703878456613466e-06,0.002095311434488916
189,,,,-0.000206,0.04,,8.703878456613466e-06,0.002095311434488916
190,,,,-0.0002059,0.06,,8.703878456613466e-06,0.002576901241316787
191,,,,-0.0002058,0.08,,8.703878456613466e-06,0.003070913546080384
192,,,,-0.0002057,0.08,,8.703878456613466e-06,0.003070913546080384
193,,,,-0.0002056,0.1,,8.703878456613466e-06,0.003572198203837519
194,,,,-0.0002055,0.1,,8.703878456613466e-06,0.003572198203837519
195,,,,-0.0002054,0.12,,8.703878456613466e-06,0.004078074301370685
196,,,,-0.0002053,0.12,,8.703878456613466e-06,0.004078074301370685
197,,,,-0.0002052,0.14,,8.703878456613466e-06,0.004587023000541856
198,,,,-0.0002051,0.16,,8.703878456613466e-06,0.005098124165563251
199,,,,-0.000205,0.16,,8.703878456613466e-06,0.005098124165563251
200,,,,-0.0002049,0.18,,8.703878456613466e-06,0.005610789606419046
201,,,,-0.0002048,0.18,,8.703878456613466e-06,0.005610789606419046
202,,,,-0.0002047,0.2,,8.703878456613466e-06,0.006124626519837761
203,,,,-0.0002046,0.22,,8.703878456613466e-06,0.0066393629218095915
204,,,,-0.0002045,0.22,,8.703878456613466e-06,0.0066393629218095915
205,,,,-0.0002044,0.24,,8.703878456613466e-06,0.007154804679898676
206,,,,-0.0002043,0.24,,8.703878456613466e-06,0.007154804679898676
207,,,,-0.0002042,0.26,,8.703878456613466e-06,0.007670809605739149
208,,,,-0.0002041,0.28,,8.703878456613466e-06,0.00818727121863567
209,,,,-0.000204,0.28,,8.703878456613466e-06,0.00818727121863567
210,,,,-0.0002039,0.3,,8.703878456613466e-06,0.008704108225860934
211,,,,-0.0002038,0.3,,8.703878456613466e-06,0.008704108225860934
212,,,,-0.0002037,0.32,,8.703878456613466e-06,0.009221257506842544
213,,,,-0.0002036,0.32,,8.703878456613466e-06,0.009221257506842544
214,,,,-0.0002035,0.34,,8.703878456613466e-06,0.009738669314002812
215,,,,-0.0002034,0.36,,8.703878456613466e-06,0.010256303915519467
216,,,,-0.0002033,0.36,,8.703878456613466e-06,0.010256303915519467
217,,,,-0.0002032,0.38,,8.703878456613466e-06,0.010774129199499142
218,,,,-0.0002031,0.38,,8.703878456613466e-06,0.010774129199499142
219,,,,-0.000203,0.4,,8.703878456613466e-06,0.01129211893346417
220,,,,-0.0002029,0.4,,8.703878456613466e-06,0.01129211893346417
221,,,,-0.0002028,0.42,,8.703878456613466e-06,0.01181025147943514
222,,,,-0.0002027,0.42,,8.703878456613466e-06,0.01181025147943514
223,,,,-0.0002026,0.44,,8.703878456613466e-06,0.012328508831464573
224,,,,-0.0002025,0.46,,8.703878456613466e-06,0.012846875885113079
225,,,,-0.0002024,0.46,,8.703878456613466e-06,0.012846875885113079
226,,,,-0.0002023,0.48,,8.703878456613466e-06,0.013365339876243327
227,,,,-0.0002022,0.48,,8.703878456613466e-06,0.013365339876243327
228,,,,-0.0002021,0.5,,8.703878456613466e-06,0.013883889945094638
229,,,,-0.000202,0.5,,8.703878456613466e-06,0.013883889945094638
230,,,,-0.0002019,0.52,,8.703878456613466e-06,0.01440251679420996
231,,,,-0.0002018,0.52,,8.703878456613466e-06,0.01440251679420996
232,,,,-0.0002017,0.54,,8.703878456613466e-06,0.01492121241747801
233,,,,-0.0002016,0.54,,8.703878456613466e-06,0.01492121241747801
234,,,,-0.0002015,0.56,,8.703878456613466e-06,0.015439969883633194
235,,,,-0.0002014,0.58,,8.703878456613466e-06,0.015958783161867322
236,,,,-0.0002013,0.58,,8.703878456613466e-06,0.015958783161867322
237,,,,-0.0002012,0.6,,8.703878456613466e-06,0.016477646980303344
238,,,,-0.0002011,0.6,,8.703878456613466e-06,0.016477646980303344
239,,,,-0.000201,0.62,,8.703878456613466e-06,0.016996556710331064
240,,,,-0.0002009,0.64,,8.703878456613466e-06,0.01751550827145761
241,,,,-0.0002008,0.64,,8.703878456613466e-06,0.01751550827145761
242,,,,-0.0002007,0.66,,8.703878456613466e-06,0.01803449805255195
243,,,,-0.0002006,0.66,,8.703878456613466e-06,0.01803449805255195
244,,,,-0.0002005,0.68,,8.703878456613466e-06,0.018553522846281784
245,,,,-0.0002004,0.68,,8.703878456613466e-06,0.018553522846281784
246,,,,-0.0002003,0.7,,8.703878456613466e-06,0.019072579794236016
247,,,,-0.0002002,0.7,,8.703878456613466e-06,0.019072579794236016
248,,,,-0.0002001,0.72,,8.703878456613466e-06,0.019591666340755702
249,,,,-0.0002,0.72,,8.703878456613466e-06,0.019591666340755702
250,,,,-0.0001999,0.74,,8.703878456613466e-06,0.020110780193903464
251,,,,-0.0001998,0.74,,8.703878456613466e-06,0.020110780193903464
252,,,,-0.0001997,0.76,,8.703878456613466e-06,0.02062991929231668
253,,,,-0.0001996,0.76,,8.703878456613466e-06,0.02062991929231668
254,,,,-0.0001995,0.78,,8.703878456613466e-06,0.021149081776935377
255,,,,-0.0001994,0.78,,8.703878456613466e-06,0.021149081776935377
256,,,,-0.0001993,0.8,,8.703878456613466e-06,0.02166826596678885
257,,,,-0.0001992,0.82,,8.703878456613466e-06,0.022187470338177355
258,,,,-0.0001991,0.82,,8.703878456613466e-06,0.022187470338177355
259,,,,-0.000199,0.84,,8.703878456613466e-06,0.02270669350670634
260,,,,-0.0001989,0.84,,8.703878456613466e-06,0.02270669350670634
261,,,,-0.0001988,0.86,,8.703878456613466e-06,0.023225934211727632
262,,,,-0.0001987,0.86,,8.703878456613466e-06,0.023225934211727632
263,,,,-0.0001986,0.88,,8.703878456613466e-06,0.02374519130281961
264,,,,-0.0001985,0.88,,8.703878456613466e-06,0.02374519130281961
265,,,,-0.0001984,0.9,,8.703878456613466e-06,0.024264463728001492
266,,,,-0.0001983,0.9,,8.703878456613466e-06,0.024264463728001492
267,,,,-0.0001982,0.92,,8.703878456613466e-06,0.02478375052342764
268,,,,-0.0001981,0.92,,8.703878456613466e-06,0.02478375052342764
269,,,,-0.000198,0.94,,8.703878456613466e-06,0.025303050804349657
270,,,,-0.0001979,0.94,,8.703878456613466e-06,0.025303050804349657
271,,,,-0.0001978,0.96,,8.703878456613466e-06,0.02582236375716793
272,,,,-0.0001977,0.96,,8.703878456613466e-06,0.02582236375716793
273,,,,-0.0001976,0.98,,8.703878456613466e-06,0.02634168863242256
274,,,,-0.0001975,0.98,,8.703878456613466e-06,0.02634168863242256
275,,,,-0.0001974,1.0,,8.703878456613466e-06,0.026861024738596626
276,,,,-0.0001973,1.0,,8.703878456613466e-06,0.026861024738596626
277,,,,-0.0001972,1.02,,8.703878456613466e-06,0.02738037143662408
278,,,,-0.0001971,1.02,,8.703878456613466e-06,0.02738037143662408
279,,,,-0.000197,1.04,,8.703878456613466e-06,0.027899728135010557
280,,,,-0.0001969,1.04,,8.703878456613466e-06,0.027899728135010557
281,,,,-0.0001968,1.06,,8.703878456613466e-06,0.028419094285488767
282,,,,-0.0001967,1.06,,8.703878456613466e-06,0.028419094285488767
283,,,,-0.0001966,1.06,,8.703878456613466e-06,0.028419094285488767
284,,,,-0.0001965,1.08,,8.703878456613466e-06,0.028938469379141324
285,,,,-0.0001964,1.08,,8.703878456613466e-06,0.028938469379141324
286,,,,-0.0001963,1.1,,8.703878456613466e-06,0.029457852942933575
287,,,,-0.0001962,1.1,,8.703878456613466e-06,0.029457852942933575
288,,,,-0.0001961,1.12,,8.703878456613466e-06,0.029977244536606436
289,,,,-0.000196,1.12,,8.703878456613466e-06,0.029977244536606436
290,,,,-0.0001959,1.14,,8.703878456613466e-06,0.03049664374988664
291,,,,-0.0001958,1.14,,8.703878456613466e-06,0.03049664374988664
292,,,,-0.0001957,1.16,,8.703878456613466e-06,0.031016050199977108
293,,,,-0.0001956,1.16,,8.703878456613466e-06,0.031016050199977108
